<?xml version="1.0" standalone="no"?>
<!DOCTYPE svg PUBLIC "-//W3C//DTD SVG 1.1//EN" "http://www.w3.org/Graphics/SVG/1.1/DTD/svg11.dtd" >
<svg xmlns="http://www.w3.org/2000/svg" xmlns:xlink="http://www.w3.org/1999/xlink" version="1.1">
<metadata>
Created by FontForge 20201107 at Fri Jan 12 15:43:12 2024
 By 
Copyright (c) 1988, 1990, 1993, 2002 Adobe Systems Incorporated.  All Rights Reserved. (c) 1981, 2002 Heidelberger Druckmaschinen AG. All rights reserved.
</metadata>
<defs>
<font id="HelveticaNeueLTStd-Bd" horiz-adv-x="1138" >
  <font-face 
    font-family="HelveticaNeueLT Std"
    font-weight="700"
    font-stretch="normal"
    units-per-em="2048"
    panose-1="2 11 8 4 2 2 2 2 2 4"
    ascent="1462"
    descent="-586"
    x-height="1059"
    cap-height="1462"
    bbox="-340 -446 2208 1997"
    underline-thickness="102"
    underline-position="-204"
    unicode-range="U+0020-FB02"
  />
<missing-glyph horiz-adv-x="1024" 
d="M0 0v1434h1024v-1434h-1024zM512 809l348 522h-696zM573 717l349 -522v1044zM164 102h696l-348 523zM102 1239v-1044l349 522z" />
    <glyph glyph-name="fi" unicode="fi" horiz-adv-x="1251" 
d="M1133 1462v-239h-291v239h291zM842 0v1059h291v-1059h-291zM174 0v864h-174v195h174v82q0 145 90.5 233t263.5 88q29 0 84.5 -3.5t69.5 -4.5v-217q-53 6 -107 6q-59 0 -84.5 -27.5t-25.5 -93.5v-63h201v-195h-201v-864h-291z" />
    <glyph glyph-name="fl" unicode="fl" horiz-adv-x="1251" 
d="M842 0v1462h291v-1462h-291zM174 0v864h-174v195h174v82q0 145 90.5 233t263.5 88q29 0 84.5 -3.5t69.5 -4.5v-217q-53 6 -107 6q-59 0 -84.5 -27.5t-25.5 -93.5v-63h201v-195h-201v-864h-291z" />
    <glyph glyph-name=".notdef" horiz-adv-x="1024" 
d="M0 0v1434h1024v-1434h-1024zM512 809l348 522h-696zM573 717l349 -522v1044zM164 102h696l-348 523zM102 1239v-1044l349 522z" />
    <glyph glyph-name=".null" horiz-adv-x="0" 
 />
    <glyph glyph-name="nonmarkingreturn" horiz-adv-x="682" 
 />
    <glyph glyph-name="space" unicode=" " horiz-adv-x="569" 
 />
    <glyph glyph-name="exclam" unicode="!" horiz-adv-x="569" 
d="M436 1462v-393l-80 -631h-145l-78 631v393h303zM125 0v315h321v-315h-321z" />
    <glyph glyph-name="quotedbl" unicode="&#x22;" horiz-adv-x="948" 
d="M555 805v657h219v-657h-219zM174 805v657h219v-657h-219z" />
    <glyph glyph-name="numbersign" unicode="#" 
d="M180 0l58 406h-170v184h194l37 254h-170v184h195l57 406h199l-58 -406h199l55 406h199l-55 -406h151v-184h-178l-35 -254h152v-184h-179l-55 -406h-198l55 406h-197l-57 -406h-199zM694 844h-196l-37 -254h198z" />
    <glyph glyph-name="dollar" unicode="$" 
d="M508 924v333q-75 0 -129.5 -45t-54.5 -125q0 -67 42 -103t142 -60zM629 598v-393q87 9 154 60t67 141q0 79 -47.5 118t-173.5 74zM-2 475h291q-1 -110 60 -180t159 -90v428q-16 7 -66 18q-71 19 -122 37.5t-109 51.5t-94 73.5t-60 103.5t-24 142q0 102 39.5 184.5
t106.5 135t151 83t178 35.5v158h121v-158q95 -10 173.5 -40t142 -81.5t101.5 -131.5t44 -183h-291q-1 82 -51 139t-119 57v-362q40 -10 104 -27q83 -23 148 -54.5t107.5 -63.5t72.5 -73t45 -73.5t23.5 -76.5t10 -70t1.5 -64q0 -39 -13.5 -87t-50 -106.5t-91.5 -106.5
t-148 -84t-209 -44v-174h-121v174q-464 35 -510 510z" />
    <glyph glyph-name="percent" unicode="%" horiz-adv-x="2048" 
d="M154 1057q0 115 36 204.5t116 145t196 55.5q92 0 159 -32t104.5 -90.5t55 -130t17.5 -160.5q0 -176 -86.5 -280.5t-259.5 -104.5q-338 0 -338 393zM362 1053q0 -30 1 -48.5t4 -50.5t12 -52.5t22.5 -42t37.5 -32t55 -10.5q30 0 53.5 11t38 31t23.5 42t13 51.5t5.5 51
t1.5 47.5q0 258 -127 258q-140 0 -140 -256zM1210 375q0 115 36.5 202t116.5 140t196 53q335 0 335 -403q0 -177 -87 -286.5t-259 -109.5q-92 0 -159 31t-105 87.5t-56 127t-18 158.5zM1419 373q0 -31 0.5 -49.5t4 -53t12 -55.5t22 -44t37.5 -34.5t55 -11.5q136 0 136 246
q0 245 -127 245q-31 0 -55.5 -11t-39 -31.5t-24.5 -43t-14 -53t-5.5 -53t-1.5 -51.5zM520 -45l848 1524h174l-844 -1524h-178z" />
    <glyph glyph-name="ampersand" unicode="&#x26;" horiz-adv-x="1402" 
d="M782 1145q0 57 -39.5 98t-93.5 41t-92.5 -36.5t-38.5 -92.5q0 -22 5.5 -44.5t11 -37t21 -38t22 -32t28.5 -35t27 -32.5q37 24 59 41t45.5 42.5t34 56.5t10.5 69zM797 340l-250 305q-89 -39 -147 -99.5t-58 -142.5q0 -79 62.5 -135.5t146.5 -56.5q131 0 246 129zM1069 0
l-119 145q-177 -174 -411 -174q-133 0 -239.5 51.5t-170 152.5t-63.5 235q0 143 91.5 250t235.5 174q-70 86 -104.5 155t-34.5 156q0 98 55 175.5t141.5 118t184.5 40.5q113 0 202 -38.5t144 -119.5t55 -193q0 -226 -260 -364l189 -232q39 71 53 175h252q-23 -213 -142 -361
l297 -346h-356z" />
    <glyph glyph-name="quotesingle" unicode="'" horiz-adv-x="569" 
d="M176 805v657h219v-657h-219z" />
    <glyph glyph-name="parenleft" unicode="(" horiz-adv-x="606" 
d="M377 1497h244q-224 -426 -224 -928q0 -513 221 -942h-241q-129 214 -200 451t-71 471q0 241 70.5 501t200.5 447z" />
    <glyph glyph-name="parenright" unicode=")" horiz-adv-x="606" 
d="M229 -373h-243q223 421 223 926q0 512 -221 944h241q129 -216 200 -453t71 -471q0 -241 -70.5 -500.5t-200.5 -445.5z" />
    <glyph glyph-name="asterisk" unicode="*" horiz-adv-x="833" 
d="M496 1462v-256l237 90l55 -157l-241 -80l151 -201l-135 -100l-151 211l-144 -211l-137 100l152 201l-238 80l55 157l232 -90v256h164z" />
    <glyph glyph-name="plus" unicode="+" horiz-adv-x="1228" 
d="M725 1034v-407h408v-219h-408v-408h-219v408h-408v219h408v407h219z" />
    <glyph glyph-name="comma" unicode="," horiz-adv-x="569" 
d="M125 0v315h321v-315q0 -136 -90.5 -227.5t-228.5 -112.5v147q64 10 106 67.5t39 125.5h-147z" />
    <glyph glyph-name="hyphen" unicode="-" horiz-adv-x="833" 
d="M109 434v250h616v-250h-616z" />
    <glyph glyph-name="period" unicode="." horiz-adv-x="569" 
d="M123 0v315h321v-315h-321z" />
    <glyph glyph-name="slash" unicode="/" horiz-adv-x="759" 
d="M-23 -35l572 1532h233l-571 -1532h-234z" />
    <glyph glyph-name="zero" unicode="0" 
d="M43 723q0 163 27.5 291t75 211t115 137.5t143 77t163.5 22.5q89 0 165.5 -22.5t144.5 -77t115.5 -137.5t75.5 -211t28 -291q0 -167 -28 -297t-75.5 -214.5t-115.5 -139.5t-144 -78t-166 -23q-88 0 -163.5 23t-143 78t-115 139.5t-75 214.5t-27.5 297zM334 723
q0 -38 0.5 -60.5t2.5 -68.5t5.5 -76.5t12 -74t19.5 -73t29 -62t40.5 -52t54 -32.5t69.5 -13q49 0 88 21t63.5 51t42 80t26 89.5t13 99.5t5 90.5t0.5 80.5q0 41 -0.5 65.5t-3 75t-9 84.5t-17 80t-28.5 77t-42 60t-59.5 43.5t-78.5 14.5q-38 0 -69.5 -13t-54 -32.5
t-40.5 -51.5t-29 -61.5t-19.5 -72t-12 -72.5t-5.5 -74t-2.5 -65.5t-0.5 -57.5z" />
    <glyph glyph-name="one" unicode="1" 
d="M803 1434v-1434h-291v930h-360v219q80 -2 147.5 12.5t126 46t96.5 89.5t49 137h232z" />
    <glyph glyph-name="two" unicode="2" 
d="M354 883h-278q-5 166 52.5 295.5t178.5 206.5t289 77q133 0 243.5 -52.5t179 -156t68.5 -239.5q0 -78 -19 -143.5t-57 -118t-80 -92t-100 -80.5q-35 -25 -107 -71.5t-116 -77t-99 -80.5t-91 -101h678v-250h-1053q0 54 8.5 104t20.5 91t35 82t43.5 71.5t56 66t61.5 59
t71.5 57.5t75 54t81.5 56q15 10 48.5 32t52.5 34.5t49 35t48 40t40 43t34 49t20.5 54t8.5 62.5q0 100 -60 160.5t-155 60.5q-62 0 -108 -29.5t-71 -78.5t-37 -104.5t-12 -116.5z" />
    <glyph glyph-name="three" unicode="3" 
d="M467 649v205q38 -1 79.5 -1t82 12t72.5 30.5t51.5 54t19.5 82.5q0 87 -59.5 139t-143.5 52q-106 0 -164.5 -71t-56.5 -185h-276q8 222 142 358.5t353 136.5q69 0 138 -16.5t131 -50t109.5 -80t75.5 -111.5t28 -139q0 -105 -52 -185.5t-149 -107.5v-4
q117 -26 185.5 -115.5t68.5 -210.5q0 -110 -43.5 -200t-117.5 -148.5t-170 -90.5t-202 -32q-245 0 -390.5 139.5t-141.5 383.5h276q5 -125 68.5 -204t183.5 -79q100 0 167 62.5t67 162.5q0 39 -7.5 70.5t-24 53t-33.5 37.5t-45.5 25.5t-49 15.5t-56 8t-54.5 2.5t-54 0.5h-8z
" />
    <glyph glyph-name="four" unicode="4" 
d="M639 0v332h-606v266l622 836h260v-863h191v-239h-191v-332h-276zM639 571v498h-6l-371 -498h377z" />
    <glyph glyph-name="five" unicode="5" 
d="M1024 1434v-240h-592l-57 -326l4 -4q108 111 280 111q103 0 188 -38.5t140 -105t85 -155t30 -189.5q0 -144 -72.5 -264.5t-195 -187.5t-265.5 -64q-106 0 -200.5 29.5t-168.5 84.5t-118 143.5t-45 197.5h291q11 -96 75.5 -155.5t159.5 -59.5q110 0 179 82t69 194
q0 116 -67 192.5t-181 76.5q-76 0 -125.5 -27t-93.5 -88h-262l141 793h801z" />
    <glyph glyph-name="six" unicode="6" 
d="M1071 1065h-276q-14 75 -67 126.5t-126 51.5q-60 0 -108.5 -30.5t-77.5 -76.5t-49 -107t-28 -114.5t-11 -107.5l4 -4q113 160 323 160q91 0 179.5 -40t150.5 -108q111 -129 111 -319q0 -146 -62.5 -265.5t-178 -189.5t-261.5 -70q-91 0 -167 22.5t-132 61t-100 94.5
t-72 119.5t-46.5 139t-26 150t-7.5 155.5q0 109 19 212.5t62.5 202t107 172t160 118t214.5 44.5q189 0 315 -105t150 -292zM586 743q-111 0 -171.5 -76.5t-60.5 -189.5q0 -106 64 -186t168 -80q99 0 159 79t60 183q0 71 -22.5 130.5t-73.5 99.5t-123 40z" />
    <glyph glyph-name="seven" unicode="7" 
d="M1059 1434v-250q-109 -95 -199 -241t-147.5 -307t-89 -325.5t-33.5 -310.5h-311q24 315 149.5 614.5t331.5 548.5h-680v271h979z" />
    <glyph glyph-name="eight" unicode="8" 
d="M319 434q0 -108 73.5 -176t180.5 -68q105 0 175.5 68t70.5 174q0 101 -71.5 165.5t-174.5 64.5q-110 0 -182 -60.5t-72 -167.5zM88 1071q0 93 42.5 169.5t112 123.5t154.5 72.5t174 25.5q102 0 186 -27t137 -68.5t90 -94t52 -102t15 -93.5q0 -107 -54.5 -187.5
t-154.5 -113.5v-4q127 -29 197.5 -121.5t70.5 -228.5q0 -88 -30.5 -162.5t-82 -127t-120.5 -89.5t-146 -54.5t-158 -17.5q-84 0 -162.5 16.5t-148 52.5t-121.5 88t-82 127t-30 165q0 136 71.5 228.5t198.5 123.5v4q-102 29 -156.5 108t-54.5 187zM352 1044q0 -90 63 -139
t156 -49t154 49.5t61 138.5q0 32 -9 63t-30.5 63.5t-66.5 52.5t-109 20q-92 0 -155.5 -53.5t-63.5 -145.5z" />
    <glyph glyph-name="nine" unicode="9" 
d="M68 369h276q14 -75 67 -127t126 -52q60 0 108.5 30.5t77.5 76.5t49 107.5t28 115t11 107.5l-4 4q-113 -160 -324 -160q-92 0 -179.5 39.5t-149.5 107.5q-111 129 -111 320q0 146 62.5 265t178 189t261.5 70q126 0 223.5 -43t158.5 -113t100 -168.5t54 -200t15 -216.5
q0 -77 -9.5 -152t-31 -149.5t-53 -140.5t-77.5 -123t-102.5 -97.5t-131 -64t-159.5 -23.5q-188 0 -314 105.5t-150 292.5zM553 690q111 0 171 76.5t60 189.5q0 106 -63.5 186.5t-167.5 80.5q-99 0 -159 -79t-60 -183q0 -71 22.5 -130.5t73.5 -100t123 -40.5z" />
    <glyph glyph-name="colon" unicode=":" horiz-adv-x="569" 
d="M125 0v315h321v-315h-321zM446 1040v-315h-321v315h321z" />
    <glyph glyph-name="semicolon" unicode=";" horiz-adv-x="569" 
d="M125 0v315h321v-315q-1 -137 -91.5 -228t-227.5 -112v147q64 10 106 67.5t39 125.5h-147zM446 1040v-315h-321v315h321z" />
    <glyph glyph-name="less" unicode="&#x3c;" horiz-adv-x="1228" 
d="M1135 1053v-236l-752 -299l752 -299v-235l-1041 413v242z" />
    <glyph glyph-name="equal" unicode="=" horiz-adv-x="1228" 
d="M1133 846v-219h-1035v219h1035zM1133 408v-220h-1035v220h1035z" />
    <glyph glyph-name="greater" unicode="&#x3e;" horiz-adv-x="1228" 
d="M94 -16v235l752 299l-752 299v236l1041 -414v-242z" />
    <glyph glyph-name="question" unicode="?" 
d="M367 991h-301q5 223 140.5 364.5t356.5 141.5q93 0 171.5 -18t133 -49.5t95.5 -70.5t64 -84.5t34.5 -88t11.5 -84.5q0 -71 -13.5 -127t-40.5 -96.5t-52.5 -66t-65.5 -56.5q-8 -6 -43 -31.5t-46 -34.5t-36.5 -32.5t-36.5 -41t-23 -44.5t-16 -56v-78h-276v92q4 64 20 115.5
t43.5 90t53 63.5t61.5 53q77 61 98 85q52 58 52 136q0 92 -45.5 138t-128.5 46q-104 0 -156.5 -74.5t-54.5 -191.5zM395 0v315h322v-315h-322z" />
    <glyph glyph-name="at" unicode="@" horiz-adv-x="1638" 
d="M596 653q0 -81 44.5 -131.5t115.5 -50.5q70 0 129.5 48t91 118.5t31.5 142.5q0 74 -46 124t-112 50q-70 0 -130 -47.5t-92 -116t-32 -137.5zM1274 1116l-129 -528q-39 -135 18 -135q92 0 167 109t75 267t-74.5 274t-198.5 173t-282 57q-260 0 -420 -171.5t-160 -434.5
q0 -176 77.5 -313t214.5 -211t312 -74q129 0 245.5 44.5t195.5 123.5h172q-104 -158 -268.5 -245t-356.5 -87q-161 0 -306.5 58.5t-251.5 159.5t-168 244t-62 304q0 159 62 301.5t167 244t248.5 161t300.5 59.5q140 0 269 -45.5t227.5 -125t157.5 -198.5t59 -256
q0 -101 -26.5 -190t-69.5 -151.5t-95.5 -112.5t-107.5 -79.5t-101.5 -44.5t-81.5 -15q-64 0 -105 32.5t-44 83.5h-4q-35 -59 -94 -89t-127 -30q-132 0 -227 104t-95 247q0 97 32.5 190.5t89.5 167t142 119t183 45.5q74 0 140 -34.5t99 -108.5l33 110h168z" />
    <glyph glyph-name="A" unicode="A" horiz-adv-x="1402" 
d="M-14 0l555 1462h329l547 -1462h-334l-110 326h-547l-115 -326h-325zM700 1102l-190 -537h379l-184 537h-5z" />
    <glyph glyph-name="B" unicode="B" horiz-adv-x="1441" 
d="M463 651v-401h344q237 0 237 192q0 108 -61.5 158.5t-169.5 50.5h-350zM141 0v1462h688q109 0 191.5 -18.5t146 -60t96.5 -112.5t33 -171q0 -210 -198 -305q131 -38 199.5 -135t68.5 -236q0 -107 -43 -190.5t-116.5 -133.5t-164 -75t-192.5 -25h-709zM463 1212v-342h325
q90 0 143.5 43t53.5 131q0 50 -17.5 84.5t-50.5 52t-69.5 24.5t-83.5 7h-301z" />
    <glyph glyph-name="C" unicode="C" horiz-adv-x="1517" 
d="M1427 971h-311q-15 109 -107 182.5t-212 73.5q-84 0 -152 -28t-113 -75t-75.5 -112t-44 -136.5t-13.5 -150.5q0 -76 13.5 -145t44 -132.5t75.5 -110t113 -74t152 -27.5q143 0 227.5 88.5t103.5 238.5h312q-25 -273 -199.5 -435.5t-443.5 -162.5q-166 0 -303 59.5
t-227 162.5t-139.5 241.5t-49.5 296.5q0 163 49.5 304t139.5 245t227 163.5t303 59.5q163 0 297.5 -60t224 -180.5t108.5 -285.5z" />
    <glyph glyph-name="D" unicode="D" horiz-adv-x="1517" 
d="M141 0v1462h631q144 0 264 -45.5t210 -133.5t140 -227t50 -317q0 -161 -41.5 -294.5t-122.5 -233.5t-209 -155.5t-291 -55.5h-631zM463 1192v-922h287q73 0 136 24t115.5 73.5t82.5 137t30 204.5q0 115 -21.5 200.5t-69.5 150.5t-131 98.5t-200 33.5h-229z" />
    <glyph glyph-name="E" unicode="E" horiz-adv-x="1327" 
d="M141 0v1462h1094v-270h-772v-313h708v-250h-708v-359h788v-270h-1110z" />
    <glyph glyph-name="F" unicode="F" horiz-adv-x="1214" 
d="M141 0v1462h1028v-270h-706v-338h612v-250h-612v-604h-322z" />
    <glyph glyph-name="G" unicode="G" horiz-adv-x="1554" 
d="M1231 0l-33 166q-157 -201 -401 -201q-166 0 -303 59.5t-227 162.5t-139.5 241.5t-49.5 296.5q0 163 49.5 304t139.5 245t227 163.5t303 59.5q152 0 284 -58.5t223.5 -178t108.5 -279.5h-307q-27 119 -109.5 182.5t-199.5 63.5q-84 0 -152 -28t-113 -75t-75.5 -112
t-44 -136.5t-13.5 -150.5q0 -76 13.5 -145t44 -132.5t75.5 -110t113 -74t152 -27.5q156 0 245 81t103 234h-324v240h615v-791h-205z" />
    <glyph glyph-name="H" unicode="H" horiz-adv-x="1517" 
d="M141 0v1462h322v-561h592v561h321v-1462h-321v631h-592v-631h-322z" />
    <glyph glyph-name="I" unicode="I" horiz-adv-x="604" 
d="M141 0v1462h322v-1462h-322z" />
    <glyph glyph-name="J" unicode="J" 
d="M997 1462v-1001q0 -46 -4 -87t-16.5 -93t-33.5 -94.5t-58.5 -85t-87 -71.5t-123.5 -47t-164 -18q-95 0 -179 26.5t-152.5 79.5t-109 142.5t-40.5 204.5v127h290v-66q0 -118 40.5 -180.5t146.5 -62.5q35 0 62.5 8.5t45.5 20.5t30.5 33.5t18.5 38.5t9 46.5t3.5 45.5t0.5 46
v987h321z" />
    <glyph glyph-name="K" unicode="K" horiz-adv-x="1478" 
d="M141 0v1462h322v-606l571 606h402l-572 -577l627 -885h-404l-440 657l-184 -186v-471h-322z" />
    <glyph glyph-name="L" unicode="L" horiz-adv-x="1214" 
d="M141 0v1462h322v-1192h713v-270h-1035z" />
    <glyph glyph-name="M" unicode="M" horiz-adv-x="1857" 
d="M141 0v1462h453l342 -1005h4l324 1005h452v-1462h-301v1036h-4l-358 -1036h-248l-359 1026h-4v-1026h-301z" />
    <glyph glyph-name="N" unicode="N" horiz-adv-x="1517" 
d="M141 0v1462h320l610 -981h4v981h301v-1462h-321l-609 979h-4v-979h-301z" />
    <glyph glyph-name="O" unicode="O" horiz-adv-x="1593" 
d="M78 725q0 163 49.5 304t139.5 245t227 163.5t303 59.5t303 -59.5t227 -163.5t139.5 -245t49.5 -304q0 -158 -49.5 -296.5t-139.5 -241.5t-227 -162.5t-303 -59.5t-303 59.5t-227 162.5t-139.5 241.5t-49.5 296.5zM399 725q0 -76 13.5 -145t44 -132.5t75.5 -110t113 -74
t152 -27.5q104 0 183 41.5t124.5 112.5t67.5 155t22 180q0 79 -13.5 150.5t-43.5 136.5t-75 112t-113 75t-152 28t-152 -28t-113 -75t-75.5 -112t-44 -136.5t-13.5 -150.5z" />
    <glyph glyph-name="P" unicode="P" horiz-adv-x="1366" 
d="M141 0v1462h660q106 0 192.5 -26t144 -70.5t96.5 -105t56 -127t17 -140.5t-17 -140.5t-56 -127t-96.5 -105t-144 -70.5t-192.5 -26h-338v-524h-322zM463 1212v-438h250q62 0 108 8.5t88 31t64 67.5t22 112t-22 112t-64 67.5t-88 31t-108 8.5h-250z" />
    <glyph glyph-name="Q" unicode="Q" horiz-adv-x="1593" 
d="M1507 20l-149 -157l-207 188q-150 -86 -354 -86q-166 0 -303 59.5t-227 162.5t-139.5 241.5t-49.5 296.5q0 163 49.5 304t139.5 245t227 163.5t303 59.5t303 -59.5t227 -163.5t139.5 -245t49.5 -304q0 -158 -49 -296t-142 -243zM788 381l150 160l166 -152q90 126 90 336
q0 79 -13.5 150.5t-43.5 136.5t-75 112t-113 75t-152 28t-152 -28t-113 -75t-75.5 -112t-44 -136.5t-13.5 -150.5q0 -76 13.5 -145t44 -132.5t75.5 -110t113 -74t152 -27.5q106 0 129 20z" />
    <glyph glyph-name="R" unicode="R" horiz-adv-x="1478" 
d="M141 0v1462h789q192 0 310 -116.5t118 -286.5q0 -272 -232 -367v-4q193 -50 213 -342q1 -9 3.5 -61t5 -79.5t8.5 -72t17.5 -77.5t27.5 -56h-322q-17 41 -26 98.5t-14.5 136t-10.5 115.5q-18 119 -71.5 170t-172.5 51h-321v-571h-322zM463 1212v-411h352q110 0 165.5 50.5
t55.5 158.5q0 202 -221 202h-352z" />
    <glyph glyph-name="S" unicode="S" horiz-adv-x="1329" 
d="M49 485h311q0 -137 91.5 -203.5t232.5 -66.5q48 0 93 8t91 26.5t73.5 56.5t27.5 91q0 29 -10.5 53.5t-26.5 42.5t-44.5 35t-54 28t-67.5 23.5t-72 20t-79.5 19.5t-79.5 20q-52 14 -93 27t-88.5 32.5t-82.5 41.5t-69 54t-55.5 69t-35 86t-13.5 106q0 108 48 194.5
t127 139.5t174.5 80.5t197.5 27.5q94 0 178.5 -16t159.5 -52.5t129.5 -90.5t86.5 -133.5t32 -178.5h-311q-4 64 -27 108.5t-64 68.5t-88.5 34t-109.5 10q-56 0 -103.5 -15t-82.5 -54t-35 -97q0 -78 66 -110.5t336 -101.5q23 -6 34 -9q128 -33 192 -63q242 -114 242 -363
q0 -208 -159.5 -338.5t-448.5 -130.5q-125 0 -235 31.5t-198.5 93t-139.5 163.5t-50 232z" />
    <glyph glyph-name="T" unicode="T" horiz-adv-x="1251" 
d="M465 0v1192h-438v270h1198v-270h-439v-1192h-321z" />
    <glyph glyph-name="U" unicode="U" horiz-adv-x="1517" 
d="M1382 1462v-909q0 -291 -162.5 -439.5t-461.5 -148.5q-300 0 -461.5 147.5t-161.5 440.5v909h322v-909q0 -53 6 -95t25 -85.5t51.5 -72t88 -46.5t130.5 -18q168 0 235.5 75t67.5 242v909h321z" />
    <glyph glyph-name="V" unicode="V" horiz-adv-x="1290" 
d="M1307 1462l-486 -1462h-362l-475 1462h331l326 -1028h4l330 1028h332z" />
    <glyph glyph-name="W" unicode="W" horiz-adv-x="1933" 
d="M1927 1462l-393 -1462h-320l-247 995h-4l-244 -995h-326l-387 1462h322l231 -995h4l254 995h301l250 -1007h4l240 1007h315z" />
    <glyph glyph-name="X" unicode="X" horiz-adv-x="1366" 
d="M-12 0l512 766l-471 696h372l287 -467l297 467h352l-469 -698l510 -764h-383l-319 506l-326 -506h-362z" />
    <glyph glyph-name="Y" unicode="Y" horiz-adv-x="1366" 
d="M520 0v569l-538 893h362l342 -577l340 577h358l-542 -901v-561h-322z" />
    <glyph glyph-name="Z" unicode="Z" horiz-adv-x="1327" 
d="M47 0v254l784 938h-722v270h1151v-254l-785 -938h805v-270h-1233z" />
    <glyph glyph-name="bracketleft" unicode="[" horiz-adv-x="681" 
d="M139 -373v1870h541v-229h-250v-1411h250v-230h-541z" />
    <glyph glyph-name="backslash" unicode="\" horiz-adv-x="759" 
d="M211 1497l571 -1532h-233l-572 1532h234z" />
    <glyph glyph-name="bracketright" unicode="]" horiz-adv-x="681" 
d="M543 1497v-1870h-541v230h250v1411h-250v229h541z" />
    <glyph glyph-name="asciicircum" unicode="^" horiz-adv-x="1228" 
d="M125 645l352 789h275l352 -789h-240l-250 563l-249 -563h-240z" />
    <glyph glyph-name="underscore" unicode="_" horiz-adv-x="1024" 
d="M0 -256v102h1024v-102h-1024z" />
    <glyph glyph-name="grave" unicode="`" horiz-adv-x="530" 
d="M217 1190l-315 291h321l197 -291h-203z" />
    <glyph glyph-name="a" unicode="a" horiz-adv-x="1175" 
d="M770 410v108q-17 -15 -47.5 -25.5t-56.5 -15t-71 -10.5t-67 -10q-81 -16 -126.5 -50t-45.5 -106q0 -135 179 -135q64 0 111 20t70 46.5t36 65t15.5 62t2.5 50.5zM389 733h-291q5 79 35.5 141t78 101.5t111.5 65t131 36t142 10.5q465 0 465 -301v-550q0 -177 37 -236h-295
q-19 62 -21 102q-126 -131 -356 -131q-159 0 -259.5 81t-100.5 237q0 69 21 123t53 87t82 56.5t96.5 35t107.5 19.5q30 4 74.5 9.5t72 9.5t62.5 10t56 14.5t41 21.5t29 31.5t9 43.5q0 45 -14 74.5t-42.5 44t-58.5 19.5t-73 5q-179 0 -193 -160z" />
    <glyph glyph-name="b" unicode="b" horiz-adv-x="1251" 
d="M111 0v1462h290v-532h5q52 78 140.5 117.5t192.5 39.5q82 0 158 -33.5t140 -99t102.5 -175.5t38.5 -249q0 -140 -38.5 -250.5t-102.5 -176t-140 -99t-158 -33.5q-260 0 -348 164h-4v-135h-276zM887 528q0 69 -15 129t-44 107.5t-78 75.5t-111 28t-111 -28t-78 -75.5
t-44 -107.5t-15 -129q0 -92 25 -166t83 -123t140 -49t140 49t83 123t25 166z" />
    <glyph glyph-name="c" unicode="c" horiz-adv-x="1175" 
d="M1116 686h-285q-13 89 -68.5 135.5t-146.5 46.5q-54 0 -97 -21t-70.5 -55t-46 -79.5t-26 -92.5t-7.5 -96q0 -48 7.5 -93.5t25.5 -89.5t44.5 -77t68.5 -53.5t95 -20.5q99 0 158.5 58t73.5 158h280q-27 -208 -162.5 -321.5t-347.5 -113.5q-238 0 -386 152t-148 391
q0 254 144 413.5t396 159.5q95 0 181 -25t155 -73.5t112 -126.5t50 -176z" />
    <glyph glyph-name="d" unicode="d" horiz-adv-x="1251" 
d="M866 0v135h-4q-97 -164 -321 -164q-93 0 -171.5 31t-134 84.5t-94 126t-57 155t-18.5 171.5q0 109 30 206.5t87 174t148 122t204 45.5q97 0 181 -40.5t132 -116.5h4v532h291v-1462h-277zM862 532q0 68 -13 125.5t-41 106.5t-78 76.5t-118 27.5q-69 0 -120 -28t-80 -76.5
t-42.5 -107t-13.5 -126.5q0 -65 15 -124t45 -108t80.5 -78.5t115.5 -29.5q70 0 120 28.5t77.5 78t40 108t12.5 127.5z" />
    <glyph glyph-name="e" unicode="e" horiz-adv-x="1175" 
d="M1114 459h-764q12 -269 260 -269q84 0 150 42.5t80 95.5h256q-117 -357 -496 -357q-248 0 -394.5 154t-146.5 403q0 158 67.5 285t191.5 200.5t282 73.5q105 0 193 -34t149.5 -93.5t102.5 -139t58 -171t11 -190.5zM350 643h473q-21 114 -74.5 169.5t-156.5 55.5
q-65 0 -114 -23t-75 -59.5t-38.5 -72t-14.5 -70.5z" />
    <glyph glyph-name="f" unicode="f" horiz-adv-x="681" 
d="M174 0v864h-174v195h174v82q0 145 90.5 233t263.5 88q29 0 84.5 -3.5t69.5 -4.5v-217q-53 6 -107 6q-59 0 -84.5 -27.5t-25.5 -93.5v-63h201v-195h-201v-864h-291z" />
    <glyph glyph-name="g" unicode="g" horiz-adv-x="1251" 
d="M1128 1059v-991q0 -62 -9.5 -117t-44 -122.5t-91 -115.5t-160.5 -81t-243 -33q-82 0 -160 19.5t-146 59t-112 107t-49 154.5h288q36 -146 217 -146q117 0 176.5 71.5t57.5 190.5v140h-4q-45 -80 -131.5 -122t-186.5 -42q-115 0 -203.5 41.5t-142 115.5t-80 168.5
t-26.5 206.5q0 104 29.5 197.5t85.5 167t143.5 116.5t195.5 43q220 0 316 -169h4v141h276zM604 250q118 0 183 85.5t65 207.5q0 68 -12.5 124t-40.5 102.5t-77.5 72.5t-117.5 26q-116 0 -175.5 -86.5t-59.5 -214.5q0 -61 12 -114.5t38 -100.5t73.5 -74.5t111.5 -27.5z" />
    <glyph glyph-name="h" unicode="h" horiz-adv-x="1214" 
d="M111 0v1462h290v-551h7q53 85 137.5 130.5t171.5 45.5q113 0 190.5 -30.5t119.5 -90.5t59.5 -135.5t17.5 -179.5v-651h-291v598q0 133 -43.5 196.5t-142.5 63.5q-119 0 -172.5 -71t-53.5 -232v-555h-290z" />
    <glyph glyph-name="i" unicode="i" horiz-adv-x="528" 
d="M119 0v1059h291v-1059h-291zM410 1462v-239h-291v239h291z" />
    <glyph glyph-name="j" unicode="j" horiz-adv-x="569" 
d="M-39 -365v240q24 -8 64 -8q52 0 82 19.5t30 74.5v1098h291v-1112q0 -113 -31.5 -180.5t-114 -103.5t-227.5 -36q-32 0 -94 8zM428 1462v-239h-291v239h291z" />
    <glyph glyph-name="k" unicode="k" horiz-adv-x="1175" 
d="M137 0v1462h291v-784l367 381h344l-400 -389l445 -670h-353l-290 473l-113 -108v-365h-291z" />
    <glyph glyph-name="l" unicode="l" horiz-adv-x="528" 
d="M119 0v1462h291v-1462h-291z" />
    <glyph glyph-name="m" unicode="m" horiz-adv-x="1855" 
d="M119 0v1059h274v-144h4q120 172 324 172q230 0 309 -176q50 76 133.5 126t186.5 50q180 0 283.5 -91t103.5 -287v-709h-291v600q0 50 -2.5 82t-12.5 69t-28.5 58t-52.5 35t-82 14q-47 0 -83 -15.5t-57 -40t-33.5 -61t-17 -72t-4.5 -79.5v-590h-291v594q0 113 -11 154
q-28 105 -152 110h-13q-20 0 -42.5 -5t-51 -21.5t-50.5 -42t-37 -71t-15 -104.5v-614h-291z" />
    <glyph glyph-name="n" unicode="n" horiz-adv-x="1214" 
d="M111 0v1059h276v-148h6q54 86 141 131t183 45q113 0 190.5 -30.5t119.5 -90.5t59.5 -135.5t17.5 -179.5v-651h-291v598q0 133 -43.5 196.5t-142.5 63.5q-119 0 -172.5 -71t-53.5 -232v-555h-290z" />
    <glyph glyph-name="o" unicode="o" horiz-adv-x="1251" 
d="M78 528q0 254 149 406.5t398 152.5q250 0 399.5 -152.5t149.5 -406.5q0 -253 -149.5 -405t-399.5 -152q-249 0 -398 152.5t-149 404.5zM369 528q0 -67 13 -124.5t41 -107t79.5 -78t122.5 -28.5q72 0 124 28.5t80 78t41 107t13 124.5q0 68 -13 125.5t-41 107.5t-80 78.5
t-124 28.5q-71 0 -122.5 -28.5t-79.5 -78.5t-41 -107.5t-13 -125.5z" />
    <glyph glyph-name="p" unicode="p" horiz-adv-x="1251" 
d="M111 -373v1432h276v-135h4q101 163 316 163q97 0 177 -30.5t136 -83t94 -125t56 -155.5t18 -175q0 -108 -30 -205t-86 -174t-146.5 -122.5t-202.5 -45.5q-97 0 -181 41.5t-136 118.5h-5v-504h-290zM645 190q55 0 99 18.5t72 50t46.5 75t26.5 91t8 101.5q0 66 -14 125
t-43 108.5t-79.5 79t-117.5 29.5q-55 0 -99 -19.5t-72 -51.5t-46.5 -76.5t-26.5 -92.5t-8 -102q0 -68 13.5 -126t42.5 -106t79.5 -76t118.5 -28z" />
    <glyph glyph-name="q" unicode="q" horiz-adv-x="1251" 
d="M1143 1059v-1432h-291v506h-4q-48 -81 -139.5 -121.5t-194.5 -40.5q-61 0 -121.5 17.5t-120.5 59t-105 103t-73 157.5t-28 214q0 112 29.5 211.5t86.5 179.5t149.5 127t209.5 47q105 0 189.5 -39.5t131.5 -123.5h4v135h277zM356 528q0 -67 13 -125t41 -107t79 -77.5
t119 -28.5t118.5 27t79.5 75t42.5 106t13.5 126q0 65 -13.5 124t-41.5 109.5t-78 80.5t-115 30q-68 0 -119.5 -28.5t-80.5 -77.5t-43.5 -108t-14.5 -126z" />
    <glyph glyph-name="r" unicode="r" horiz-adv-x="796" 
d="M111 0v1059h276v-197h4q39 99 135 162t203 63q34 0 64 -10v-270q-45 10 -105 10q-77 0 -134 -26.5t-89.5 -74.5t-48 -107t-15.5 -132v-477h-290z" />
    <glyph glyph-name="s" unicode="s" horiz-adv-x="1099" 
d="M59 344h277q1 -89 65 -133.5t158 -44.5q47 0 87.5 11.5t72 43.5t31.5 80q0 26 -15.5 47t-39 35.5t-70.5 29.5t-89.5 25.5t-115.5 26.5q-57 13 -100 26t-90 36t-77 51.5t-49.5 72t-19.5 97.5q0 78 26.5 138.5t70 97.5t104.5 61t124 33t136 9t135.5 -10t121.5 -34
t102.5 -61.5t72 -96.5t35.5 -135h-277q-10 143 -198 143q-162 0 -162 -98q0 -22 9 -39.5t28.5 -31t39.5 -23t54.5 -19t60 -15t69 -15t69.5 -15.5q58 -13 101 -27t89.5 -38t76 -53.5t49 -75.5t19.5 -103q0 -81 -27.5 -145t-72.5 -105.5t-108.5 -68.5t-131 -38.5t-143.5 -11.5
q-77 0 -145.5 11.5t-132.5 39t-110.5 69.5t-76.5 106.5t-33 146.5z" />
    <glyph glyph-name="t" unicode="t" horiz-adv-x="720" 
d="M479 1376v-317h213v-195h-213v-524q0 -74 24.5 -98.5t98.5 -24.5q49 0 90 8v-227q-61 -10 -170 -10q-58 0 -103.5 6t-90.5 22.5t-74.5 43.5t-47.5 73t-18 107v624h-176v195h176v317h291z" />
    <glyph glyph-name="u" unicode="u" horiz-adv-x="1214" 
d="M1104 1059v-1059h-277v147h-6q-54 -86 -140.5 -131t-182.5 -45q-113 0 -190.5 30.5t-119.5 91t-59.5 136t-17.5 179.5v651h290v-598q0 -133 44 -196.5t143 -63.5q119 0 172 71t53 232v555h291z" />
    <glyph glyph-name="v" unicode="v" horiz-adv-x="1064" 
d="M1055 1059l-359 -1059h-323l-363 1059h305l224 -723h4l223 723h289z" />
    <glyph glyph-name="w" unicode="w" horiz-adv-x="1667" 
d="M1655 1059l-334 -1059h-299l-188 711h-5l-180 -711h-301l-336 1059h307l195 -719h4l176 719h283l180 -717h4l195 717h299z" />
    <glyph glyph-name="x" unicode="x" horiz-adv-x="1099" 
d="M0 0l381 557l-348 502h332l186 -277l184 277h322l-348 -496l391 -563h-332l-221 334l-221 -334h-326z" />
    <glyph glyph-name="y" unicode="y" horiz-adv-x="1062" 
d="M1075 1059l-442 -1192q-48 -128 -131.5 -184t-233.5 -56q-70 0 -178 11v239q148 -11 170 -10q48 5 78 37.5t33 75t-11 86.5l-372 993h311l240 -725h4l231 725h301z" />
    <glyph glyph-name="z" unicode="z" horiz-adv-x="1062" 
d="M45 0v219l551 621h-510v219h893v-219l-551 -621h590v-219h-973z" />
    <glyph glyph-name="braceleft" unicode="{" horiz-adv-x="681" 
d="M682 1497v-229h-111q-110 0 -110 -150v-311q0 -57 -16 -101.5t-37.5 -68.5t-52.5 -41t-52 -22.5t-45 -8.5v-6q28 -3 58.5 -14.5t65 -35t57 -69.5t22.5 -106v-328q0 -30 3.5 -52.5t14 -46.5t34 -37t58.5 -13h111v-230h-260q-36 0 -78.5 18t-82 50.5t-65.5 87.5t-26 121
v399q0 36 -13.5 65.5t-34 48.5t-46 32t-49.5 18.5t-45 5.5v178q27 0 57.5 10t61 30.5t50 58.5t19.5 86v385q0 66 26 121t65.5 87.5t82 50t78.5 17.5h260z" />
    <glyph glyph-name="bar" unicode="|" horiz-adv-x="456" 
d="M119 -438v2048h219v-2048h-219z" />
    <glyph glyph-name="braceright" unicode="}" horiz-adv-x="681" 
d="M0 -373v230h111q35 0 58.5 13t34 37t14 46.5t3.5 52.5v328q0 60 22.5 106t57 69.5t65 35t58.5 14.5v6q-24 3 -45 8.5t-52 22.5t-52.5 41t-37.5 68.5t-16 101.5v311q0 150 -110 150h-111v229h260q36 0 78.5 -17.5t82 -50t65.5 -87.5t26 -121v-385q0 -48 19.5 -86t50 -58.5
t61 -30.5t57.5 -10v-178q-21 0 -45 -5.5t-49.5 -18.5t-46 -32t-34 -48.5t-13.5 -65.5v-399q0 -66 -26 -121t-65.5 -87.5t-82 -50.5t-78.5 -18h-260z" />
    <glyph glyph-name="asciitilde" unicode="~" horiz-adv-x="1228" 
d="M1010 705l82 -191q-23 -32 -38.5 -52t-41 -46.5t-49.5 -41t-57 -25.5t-70 -11q-84 0 -209 68q-127 71 -236 71q-105 0 -172 -147l-82 190q92 176 256 176q83 0 228 -65q12 -5 54.5 -24t60 -26.5t46 -15.5t47.5 -8q38 0 74 24.5t56 50.5t51 73z" />
    <glyph glyph-name="uni00A0" unicode="&#xa0;" horiz-adv-x="569" 
 />
    <glyph glyph-name="exclamdown" unicode="&#xa1;" horiz-adv-x="569" 
d="M446 1087v-315h-321v315h321zM133 -375v393l80 631h145l78 -631v-393h-303z" />
    <glyph glyph-name="cent" unicode="&#xa2;" 
d="M532 190v676q-52 -14 -91.5 -47t-62 -78t-33.5 -95t-11 -105q0 -58 9.5 -110t31 -101.5t62 -86t95.5 -53.5zM532 -236v207q-144 9 -256 82.5t-172.5 193.5t-60.5 265q0 240 128.5 397.5t360.5 177.5v175h121v-175q85 -1 165.5 -30t145 -79.5t105 -127.5t43.5 -166h-285
q-6 73 -55.5 125.5t-118.5 58.5v-678q74 13 125 80t53 146h285q-17 -192 -144.5 -311t-318.5 -134v-207h-121z" />
    <glyph glyph-name="sterling" unicode="&#xa3;" 
d="M180 -35l-127 191q100 64 166 150.5t66 189.5q0 61 -39 137h-203v174h131q-36 44 -64 122t-28 161q0 82 34 155t98 129.5t165.5 89.5t226.5 33q235 0 367 -133t131 -379h-277q-8 110 -34 163q-53 109 -189 109q-90 0 -145.5 -51t-55.5 -137q0 -39 3.5 -64.5t22.5 -77
t58 -120.5h273v-174h-215q16 -55 16 -127q0 -89 -44.5 -156.5t-123.5 -130.5l4 -4q76 47 140 47q44 0 161 -22q110 -25 160 -25q48 0 88.5 17t91.5 71l123 -207q-137 -131 -319 -131q-119 0 -224 37q-3 1 -19 6.5t-20.5 7t-19 6t-21 6t-20 5t-23.5 4.5t-23.5 3t-27 2.5
t-28.5 0.5q-134 0 -236 -78z" />
    <glyph glyph-name="currency" unicode="&#xa4;" 
d="M41 305l117 119q-99 116 -99 291q0 89 25 167.5t74 127.5l-117 118l117 117l116 -115q51 43 132 69t167 26q81 0 158 -25.5t123 -66.5l119 116l125 -125l-115 -112q43 -49 67.5 -128t24.5 -165q0 -182 -94 -299l113 -115l-113 -112l-117 118q-50 -49 -128.5 -75.5
t-164.5 -26.5q-192 0 -301 100l-114 -119zM573 1006q-123 0 -191.5 -84.5t-68.5 -206.5q0 -119 69 -203t189 -84q119 0 184.5 86t65.5 205q0 116 -65.5 201.5t-182.5 85.5z" />
    <glyph glyph-name="yen" unicode="&#xa5;" 
d="M735 0h-311v283h-322v194h322v94l-29 60h-293v194h195l-315 637h333l271 -637l264 637h332l-318 -637h195v-194h-293l-31 -60v-94h324v-194h-324v-283z" />
    <glyph glyph-name="brokenbar" unicode="&#xa6;" horiz-adv-x="456" 
d="M119 -182v512h219v-512h-219zM338 1354v-512h-219v512h219z" />
    <glyph glyph-name="section" unicode="&#xa7;" 
d="M772 588l-338 190q-4 2 -12.5 7t-14 7.5t-13.5 5t-15 1.5q-43 -4 -74 -47.5t-31 -89.5q0 -64 66 -101l369 -201q33 -14 61 -14q37 0 65.5 38t28.5 75q0 78 -92 129zM1012 1102h-254q0 77 -47 126.5t-127 49.5q-60 0 -108 -36.5t-48 -94.5q0 -24 9.5 -46t30.5 -42
t42.5 -35.5t58 -35t63 -32t72.5 -34t72 -33.5q60 -28 102.5 -52t91 -59.5t78.5 -72t50 -87t20 -106.5q0 -101 -58.5 -183t-154.5 -116q113 -85 113 -242q0 -83 -38.5 -150.5t-102 -108.5t-139.5 -63t-156 -22q-100 0 -182.5 23.5t-146 70.5t-98.5 124.5t-34 179.5h254
q4 -89 55.5 -134t144.5 -45q66 0 109 35.5t43 100.5q0 20 -5.5 38t-18.5 35t-25.5 31t-36.5 29.5t-42 26.5t-50.5 27t-52.5 25.5t-58.5 26.5t-58.5 27q-62 29 -106.5 53.5t-95.5 61.5t-82.5 74.5t-53 89.5t-21.5 110q0 108 57.5 185t162.5 114q-88 94 -88 207
q0 110 64.5 193t160 122t203.5 39q188 0 310 -105t122 -290z" />
    <glyph glyph-name="dieresis" unicode="&#xa8;" horiz-adv-x="530" 
d="M338 1223v239h276v-239h-276zM-84 1223v239h277v-239h-277z" />
    <glyph glyph-name="copyright" unicode="&#xa9;" horiz-adv-x="1638" 
d="M33 731q0 170 64.5 315.5t172.5 243t250.5 152.5t298.5 55t298.5 -55t251 -152.5t173 -243t64.5 -315.5t-64.5 -315t-173 -243t-251 -153t-298.5 -55t-298.5 55t-250.5 153t-172.5 243t-64.5 315zM242 731q0 -171 77 -309.5t209 -215.5t291 -77q118 0 224 45.5t184 124.5
t124 191.5t46 240.5t-46 241t-124 191.5t-184 124t-224 45.5q-119 0 -225.5 -45.5t-184 -124t-122.5 -191t-45 -241.5zM1055 604h166q-24 -150 -128.5 -236.5t-244.5 -86.5q-196 0 -318 129.5t-122 324.5q0 202 118 330.5t318 128.5q146 0 247.5 -83t122.5 -234h-159
q-15 71 -72.5 112t-138.5 41q-114 0 -177 -80.5t-63 -210.5q0 -124 67.5 -209.5t176.5 -85.5q85 0 141.5 43.5t65.5 116.5z" />
    <glyph glyph-name="ordfeminine" unicode="&#xaa;" horiz-adv-x="704" 
d="M471 1055v41q-13 -12 -35 -19t-59 -12t-43 -6q-50 -10 -77.5 -28.5t-27.5 -53.5q0 -40 28.5 -58t64.5 -18q149 0 149 154zM250 1239h-209q16 122 113 178q78 45 206 45q308 0 308 -182v-340q0 -110 24 -154h-207q-11 31 -14 64q-79 -82 -221 -82q-102 0 -166 51t-64 154
q0 43 13.5 76.5t34.5 54t53.5 35t62.5 21t70 11.5q18 2 50 5t48 5t39.5 5.5t35 8.5t24 12t17.5 17.5t5 24.5q0 48 -31.5 64t-91.5 16q-39 0 -67.5 -23t-32.5 -67z" />
    <glyph glyph-name="guillemotleft" unicode="&#xab;" horiz-adv-x="909" 
d="M823 164l-321 256v276l321 252v-246l-184 -145l184 -147v-246zM408 164l-322 256v276l322 252v-246l-185 -145l185 -147v-246z" />
    <glyph glyph-name="logicalnot" unicode="&#xac;" horiz-adv-x="1228" 
d="M1130 831v-628h-219v409h-813v219h1032z" />
    <glyph glyph-name="uni00AD" unicode="&#xad;" horiz-adv-x="833" 
d="M109 434v250h616v-250h-616z" />
    <glyph glyph-name="registered" unicode="&#xae;" horiz-adv-x="1638" 
d="M33 733q0 170 64.5 315t172.5 242t250.5 152t298.5 55t298.5 -55t251 -152t173 -242t64.5 -315t-64.5 -316t-173 -244t-251 -153t-298.5 -55t-298.5 55t-250.5 153t-172.5 244t-64.5 316zM242 733q0 -129 45 -241.5t122.5 -192t184 -125t225.5 -45.5q118 0 224 45.5
t184 124.5t124 192t46 242q0 128 -46 240t-124 190.5t-184 124t-224 45.5q-119 0 -225.5 -45t-184 -124t-122.5 -191t-45 -240zM514 305v858h324q167 0 251.5 -59.5t84.5 -194.5q0 -211 -226 -229l230 -375h-179l-208 367h-107v-367h-170zM684 1030v-225h152
q83 0 125.5 23.5t42.5 95.5q0 106 -177 106h-143z" />
    <glyph glyph-name="macron" unicode="&#xaf;" horiz-adv-x="530" 
d="M-117 1262v153h764v-153h-764z" />
    <glyph glyph-name="degree" unicode="&#xb0;" horiz-adv-x="819" 
d="M106 1159q0 126 89 214.5t215 88.5t214.5 -88.5t88.5 -214.5t-88.5 -214.5t-214.5 -88.5t-215 88.5t-89 214.5zM240 1159q0 -73 51.5 -126.5t118.5 -53.5t118.5 53.5t51.5 126.5t-51.5 126.5t-118.5 53.5t-118.5 -53.5t-51.5 -126.5z" />
    <glyph glyph-name="plusminus" unicode="&#xb1;" horiz-adv-x="1228" 
d="M725 1036v-268h408v-219h-408v-268h-219v268h-408v219h408v268h219zM98 0v219h1035v-219h-1035z" />
    <glyph glyph-name="twosuperior" unicode="&#xb2;" horiz-adv-x="802" 
d="M266 1106h-209q-2 164 92.5 260t278.5 96q135 0 227.5 -73t92.5 -203q0 -89 -43 -149t-123 -113q-21 -14 -69.5 -42t-76.5 -46t-64 -49t-61 -64h428v-164h-684q0 53 9.5 97.5t31 81.5t43 65t59.5 58t66.5 49.5t77.5 50.5q7 4 49.5 30t57 37.5t41.5 36.5t37.5 50.5
t11.5 55.5q0 55 -34.5 91t-90.5 36q-54 0 -89.5 -32t-48 -73.5t-10.5 -86.5z" />
    <glyph glyph-name="threesuperior" unicode="&#xb3;" horiz-adv-x="802" 
d="M336 950v144h36t36.5 2t37.5 5.5t32 10.5t28 17t17 25.5t7 35.5q0 49 -37.5 78.5t-89.5 29.5q-64 0 -101.5 -42t-35.5 -105h-196q5 144 92.5 227.5t238.5 83.5q84 0 156.5 -27t121 -86t48.5 -139q0 -64 -35 -111.5t-100 -64.5v-4q75 -13 120.5 -66.5t45.5 -125.5
q0 -141 -102 -219t-253 -78q-169 0 -265 85t-93 242h197q3 -70 43.5 -116.5t113.5 -46.5q63 0 106.5 36.5t43.5 92.5q0 24 -8 43t-18.5 31t-30.5 20.5t-34.5 12.5t-41.5 6.5t-40 2.5h-40z" />
    <glyph glyph-name="acute" unicode="&#xb4;" horiz-adv-x="530" 
d="M629 1481l-316 -291h-202l196 291h322z" />
    <glyph glyph-name="mu" unicode="&#xb5;" horiz-adv-x="1214" 
d="M1104 1059v-1059h-277v147h-6q-51 -82 -130 -129t-136 -47q-109 0 -154 49v-393h-290v1432h290v-598q0 -133 44 -196.5t143 -63.5q119 0 172 71t53 232v555h291z" />
    <glyph glyph-name="paragraph" unicode="&#xb6;" horiz-adv-x="1269" 
d="M453 -340v1071q-211 0 -330 97t-119 262q0 105 36 179t104 115t154 59.5t198 18.5h600v-1802h-209v1638h-225v-1638h-209z" />
    <glyph glyph-name="periodcentered" unicode="&#xb7;" horiz-adv-x="569" 
d="M113 588q0 72 51.5 123t122.5 51q69 0 120.5 -52t51.5 -122q0 -65 -51.5 -118.5t-118.5 -53.5q-72 0 -124 51t-52 121z" />
    <glyph glyph-name="cedilla" unicode="&#xb8;" horiz-adv-x="530" 
d="M25 -401l43 98q88 -37 172 -37q82 0 82 70q0 65 -82 65q-42 0 -82 -14l-43 49l121 174h100l-80 -113h4q22 11 70 11q76 0 132 -37t56 -107q0 -58 -20 -99t-55 -63t-75 -32t-89 -10q-61 0 -108.5 6.5t-70.5 13.5t-75 25z" />
    <glyph glyph-name="onesuperior" unicode="&#xb9;" horiz-adv-x="802" 
d="M592 1444v-885h-209v561h-225v154q107 -3 178 37t84 133h172z" />
    <glyph glyph-name="ordmasculine" unicode="&#xba;" horiz-adv-x="751" 
d="M25 1114q0 160 95.5 254t254.5 94q161 0 256.5 -94t95.5 -254t-95.5 -253t-256.5 -93q-159 0 -254.5 93t-95.5 253zM244 1114q0 -76 33.5 -134t97.5 -58q65 0 99 58t34 134q0 79 -33.5 137t-99.5 58q-64 0 -97.5 -58t-33.5 -137z" />
    <glyph glyph-name="guillemotright" unicode="&#xbb;" horiz-adv-x="909" 
d="M502 948l321 -252v-276l-321 -256v246l184 147l-184 145v246zM86 948l322 -252v-276l-322 -256v246l184 147l-184 145v246z" />
    <glyph glyph-name="onequarter" unicode="&#xbc;" horiz-adv-x="1826" 
d="M1411 0v182h-393v191l385 487h205v-514h116v-164h-116v-182h-197zM1411 346v295h-4l-233 -295h237zM311 -45l848 1524h174l-844 -1524h-178zM483 1444v-885h-209v561h-225v154q107 -3 178 37t84 133h172z" />
    <glyph glyph-name="onehalf" unicode="&#xbd;" horiz-adv-x="1820" 
d="M311 -45l848 1524h174l-844 -1524h-178zM483 1444v-885h-209v561h-225v154q107 -3 178 37t84 133h172zM1251 547h-209q-2 164 92.5 260t278.5 96q135 0 227.5 -73t92.5 -203q0 -89 -43 -149t-123 -113q-21 -14 -69.5 -42t-76.5 -46t-64 -49t-61 -64h428v-164h-684
q0 53 9.5 97.5t31 81.5t43 64.5t59.5 58t66.5 49.5t77.5 50q11 7 42 26t46 29t39.5 30t36.5 36.5t22.5 40.5t10.5 49q0 55 -34.5 91t-90.5 36q-54 0 -89.5 -32t-48 -73.5t-10.5 -86.5z" />
    <glyph glyph-name="threequarters" unicode="&#xbe;" horiz-adv-x="1820" 
d="M1452 0v182h-393v191l385 487h205v-514h116v-164h-116v-182h-197zM1452 346v295h-4l-234 -295h238zM489 -45l848 1524h174l-843 -1524h-179zM371 950v144h36t36.5 2t37.5 5.5t32 10.5t28 17t17 25.5t7 35.5q0 49 -37.5 78.5t-89.5 29.5q-64 0 -101.5 -42t-35.5 -105h-197
q5 144 93 227.5t239 83.5q84 0 156.5 -27t121 -86t48.5 -139q0 -64 -35 -111.5t-100 -64.5v-4q75 -13 120.5 -66.5t45.5 -125.5q0 -141 -102 -219t-253 -78q-169 0 -265 85t-93 242h196q3 -70 44 -116.5t114 -46.5q63 0 106.5 36.5t43.5 92.5q0 24 -8 43t-18.5 31
t-30.5 20.5t-34.5 12.5t-41.5 6.5t-40 2.5h-40z" />
    <glyph glyph-name="questiondown" unicode="&#xbf;" 
d="M768 104h301q-5 -222 -140 -363.5t-354 -141.5q-111 0 -201 26t-146 67t-94 95t-53 105t-15 102q0 71 13.5 127t40.5 96.5t52.5 66t65.5 56.5q10 8 37 27.5t38.5 28.5t33.5 27.5t33 32.5t25 34.5t21.5 42.5t11.5 47v77h277v-92q-4 -64 -20 -115.5t-43.5 -89.5t-53 -63
t-61.5 -53q-77 -61 -98 -85q-52 -58 -52 -136q0 -92 45.5 -138.5t128.5 -46.5q102 0 153.5 74.5t53.5 191.5zM743 1087v-315h-321v315h321z" />
    <glyph glyph-name="Agrave" unicode="&#xc0;" horiz-adv-x="1402" 
d="M-14 0l555 1462h329l547 -1462h-334l-110 326h-547l-115 -326h-325zM700 1102l-190 -537h379l-184 537h-5zM653 1593l-315 291h321l197 -291h-203z" />
    <glyph glyph-name="Aacute" unicode="&#xc1;" horiz-adv-x="1402" 
d="M-14 0l555 1462h329l547 -1462h-334l-110 326h-547l-115 -326h-325zM700 1102l-190 -537h379l-184 537h-5zM1065 1884l-315 -291h-203l196 291h322z" />
    <glyph glyph-name="Acircumflex" unicode="&#xc2;" horiz-adv-x="1402" 
d="M-14 0l555 1462h329l547 -1462h-334l-110 326h-547l-115 -326h-325zM700 1102l-190 -537h379l-184 537h-5zM342 1593l227 291h267l225 -291h-240l-127 166l-131 -166h-221z" />
    <glyph glyph-name="Atilde" unicode="&#xc3;" horiz-adv-x="1402" 
d="M-14 0l555 1462h329l547 -1462h-334l-110 326h-547l-115 -326h-325zM700 1102l-190 -537h379l-184 537h-5zM936 1866h141q-32 -108 -63 -152q-58 -82 -166 -82q-56 0 -168 35q-99 35 -143 35q-38 0 -57 -21.5t-29 -64.5h-125q9 41 19.5 72.5t31 66.5t46.5 58t67.5 38
t93.5 15q13 0 26 -1.5t29 -6.5t23.5 -7.5t28 -10t24.5 -9.5q88 -37 135 -37q44 0 66 20.5t20 51.5z" />
    <glyph glyph-name="Adieresis" unicode="&#xc4;" horiz-adv-x="1402" 
d="M-14 0l555 1462h329l547 -1462h-334l-110 326h-547l-115 -326h-325zM700 1102l-190 -537h379l-184 537h-5zM774 1626v240h277v-240h-277zM352 1626v240h277v-240h-277z" />
    <glyph glyph-name="Aring" unicode="&#xc5;" horiz-adv-x="1402" 
d="M-14 0l555 1462h329l547 -1462h-334l-110 326h-547l-115 -326h-325zM700 1102l-190 -537h379l-184 537h-5zM571 1747q0 -61 36 -102t93 -41q58 0 94.5 41t36.5 102t-36.5 102t-94.5 41q-57 0 -93 -41t-36 -102zM451 1747q0 103 73 176.5t176 73.5q104 0 178 -73.5
t74 -176.5t-74 -176.5t-178 -73.5q-103 0 -176 73.5t-73 176.5z" />
    <glyph glyph-name="AE" unicode="&#xc6;" horiz-adv-x="2009" 
d="M856 1192l-283 -627h353v627h-70zM-23 0l699 1462h1241v-270h-680v-313h639v-250h-639v-359h696v-270h-1007v326h-459l-148 -326h-342z" />
    <glyph glyph-name="Ccedilla" unicode="&#xc7;" horiz-adv-x="1517" 
d="M1427 971h-311q-15 109 -107 182.5t-212 73.5q-84 0 -152 -28t-113 -75t-75.5 -112t-44 -136.5t-13.5 -150.5q0 -76 13.5 -145t44 -132.5t75.5 -110t113 -74t152 -27.5q143 0 227.5 88.5t103.5 238.5h312q-25 -271 -197.5 -433t-439.5 -165l-53 -74h4q22 11 69 11
q77 0 133 -37t56 -107q0 -58 -20 -99t-55 -63t-75.5 -32t-89.5 -10q-61 0 -108.5 6.5t-70.5 13.5t-75 25l43 98q88 -37 172 -37q82 0 82 70q0 65 -82 65q-42 0 -82 -14l-43 49l99 141q-194 20 -338 125.5t-217.5 268t-73.5 360.5q0 163 49.5 304t139.5 245t227 163.5
t303 59.5q163 0 297.5 -60t224 -180.5t108.5 -285.5z" />
    <glyph glyph-name="Egrave" unicode="&#xc8;" horiz-adv-x="1327" 
d="M141 0v1462h1094v-270h-772v-313h708v-250h-708v-359h788v-270h-1110zM616 1593l-315 291h322l196 -291h-203z" />
    <glyph glyph-name="Eacute" unicode="&#xc9;" horiz-adv-x="1327" 
d="M141 0v1462h1094v-270h-772v-313h708v-250h-708v-359h788v-270h-1110zM1028 1884l-315 -291h-203l197 291h321z" />
    <glyph glyph-name="Ecircumflex" unicode="&#xca;" horiz-adv-x="1327" 
d="M141 0v1462h1094v-270h-772v-313h708v-250h-708v-359h788v-270h-1110zM305 1593l227 291h267l225 -291h-240l-127 166l-131 -166h-221z" />
    <glyph glyph-name="Edieresis" unicode="&#xcb;" horiz-adv-x="1327" 
d="M141 0v1462h1094v-270h-772v-313h708v-250h-708v-359h788v-270h-1110zM737 1626v240h277v-240h-277zM315 1626v240h277v-240h-277z" />
    <glyph glyph-name="Igrave" unicode="&#xcc;" horiz-adv-x="604" 
d="M141 0v1462h322v-1462h-322zM254 1593l-315 291h321l197 -291h-203z" />
    <glyph glyph-name="Iacute" unicode="&#xcd;" horiz-adv-x="604" 
d="M141 0v1462h322v-1462h-322zM666 1884l-316 -291h-203l197 291h322z" />
    <glyph glyph-name="Icircumflex" unicode="&#xce;" horiz-adv-x="604" 
d="M141 0v1462h322v-1462h-322zM-57 1593l227 291h266l226 -291h-240l-127 166l-131 -166h-221z" />
    <glyph glyph-name="Idieresis" unicode="&#xcf;" horiz-adv-x="604" 
d="M141 0v1462h322v-1462h-322zM375 1626v240h276v-240h-276zM-47 1626v240h276v-240h-276z" />
    <glyph glyph-name="Eth" unicode="&#xd0;" horiz-adv-x="1517" 
d="M141 0v637h-135v237h135v588h631q144 0 264 -45.5t210 -133.5t140 -227t50 -317q0 -161 -41.5 -294.5t-122.5 -233.5t-209 -155.5t-291 -55.5h-631zM463 1192v-318h328v-239h-328v-365h287q73 0 136 24t115.5 73.5t82.5 137t30 204.5q0 115 -21.5 200.5t-69.5 150.5
t-131 98.5t-200 33.5h-229z" />
    <glyph glyph-name="Ntilde" unicode="&#xd1;" horiz-adv-x="1517" 
d="M141 0v1462h320l610 -981h4v981h301v-1462h-321l-609 979h-4v-979h-301zM993 1866h142q-31 -106 -64 -152q-58 -82 -166 -82q-56 0 -168 35q-99 35 -143 35q-38 0 -57 -21.5t-29 -64.5h-125q9 41 19.5 72.5t31 66.5t46.5 58t67.5 38t93.5 15q13 0 26 -1.5t29 -6.5
t23.5 -7.5t28 -10t24.5 -9.5q88 -37 135 -37q44 0 66 20.5t20 51.5z" />
    <glyph glyph-name="Ograve" unicode="&#xd2;" horiz-adv-x="1593" 
d="M78 725q0 163 49.5 304t139.5 245t227 163.5t303 59.5t303 -59.5t227 -163.5t139.5 -245t49.5 -304q0 -158 -49.5 -296.5t-139.5 -241.5t-227 -162.5t-303 -59.5t-303 59.5t-227 162.5t-139.5 241.5t-49.5 296.5zM399 725q0 -76 13.5 -145t44 -132.5t75.5 -110t113 -74
t152 -27.5q104 0 183 41.5t124.5 112.5t67.5 155t22 180q0 79 -13.5 150.5t-43.5 136.5t-75 112t-113 75t-152 28t-152 -28t-113 -75t-75.5 -112t-44 -136.5t-13.5 -150.5zM750 1593l-316 291h322l196 -291h-202z" />
    <glyph glyph-name="Oacute" unicode="&#xd3;" horiz-adv-x="1593" 
d="M78 725q0 163 49.5 304t139.5 245t227 163.5t303 59.5t303 -59.5t227 -163.5t139.5 -245t49.5 -304q0 -158 -49.5 -296.5t-139.5 -241.5t-227 -162.5t-303 -59.5t-303 59.5t-227 162.5t-139.5 241.5t-49.5 296.5zM399 725q0 -76 13.5 -145t44 -132.5t75.5 -110t113 -74
t152 -27.5q104 0 183 41.5t124.5 112.5t67.5 155t22 180q0 79 -13.5 150.5t-43.5 136.5t-75 112t-113 75t-152 28t-152 -28t-113 -75t-75.5 -112t-44 -136.5t-13.5 -150.5zM1161 1884l-315 -291h-203l197 291h321z" />
    <glyph glyph-name="Ocircumflex" unicode="&#xd4;" horiz-adv-x="1593" 
d="M78 725q0 163 49.5 304t139.5 245t227 163.5t303 59.5t303 -59.5t227 -163.5t139.5 -245t49.5 -304q0 -158 -49.5 -296.5t-139.5 -241.5t-227 -162.5t-303 -59.5t-303 59.5t-227 162.5t-139.5 241.5t-49.5 296.5zM399 725q0 -76 13.5 -145t44 -132.5t75.5 -110t113 -74
t152 -27.5q104 0 183 41.5t124.5 112.5t67.5 155t22 180q0 79 -13.5 150.5t-43.5 136.5t-75 112t-113 75t-152 28t-152 -28t-113 -75t-75.5 -112t-44 -136.5t-13.5 -150.5zM438 1593l228 291h266l225 -291h-239l-127 166l-132 -166h-221z" />
    <glyph glyph-name="Otilde" unicode="&#xd5;" horiz-adv-x="1593" 
d="M78 725q0 163 49.5 304t139.5 245t227 163.5t303 59.5t303 -59.5t227 -163.5t139.5 -245t49.5 -304q0 -158 -49.5 -296.5t-139.5 -241.5t-227 -162.5t-303 -59.5t-303 59.5t-227 162.5t-139.5 241.5t-49.5 296.5zM399 725q0 -76 13.5 -145t44 -132.5t75.5 -110t113 -74
t152 -27.5q104 0 183 41.5t124.5 112.5t67.5 155t22 180q0 79 -13.5 150.5t-43.5 136.5t-75 112t-113 75t-152 28t-152 -28t-113 -75t-75.5 -112t-44 -136.5t-13.5 -150.5zM1032 1866h142q-31 -106 -64 -152q-58 -82 -166 -82q-56 0 -168 35q-99 35 -143 35q-38 0 -57 -21.5
t-29 -64.5h-125q9 41 19.5 72.5t31 66.5t46.5 58t67.5 38t93.5 15q13 0 26 -1.5t29 -6.5t23.5 -7.5t28 -10t24.5 -9.5q88 -37 135 -37q44 0 66 20.5t20 51.5z" />
    <glyph glyph-name="Odieresis" unicode="&#xd6;" horiz-adv-x="1593" 
d="M78 725q0 163 49.5 304t139.5 245t227 163.5t303 59.5t303 -59.5t227 -163.5t139.5 -245t49.5 -304q0 -158 -49.5 -296.5t-139.5 -241.5t-227 -162.5t-303 -59.5t-303 59.5t-227 162.5t-139.5 241.5t-49.5 296.5zM399 725q0 -76 13.5 -145t44 -132.5t75.5 -110t113 -74
t152 -27.5q104 0 183 41.5t124.5 112.5t67.5 155t22 180q0 79 -13.5 150.5t-43.5 136.5t-75 112t-113 75t-152 28t-152 -28t-113 -75t-75.5 -112t-44 -136.5t-13.5 -150.5zM870 1626v240h277v-240h-277zM449 1626v240h276v-240h-276z" />
    <glyph glyph-name="multiply" unicode="&#xd7;" horiz-adv-x="1228" 
d="M287 35l-156 155l330 328l-326 328l156 155l325 -327l328 327l156 -155l-330 -328l330 -328l-156 -155l-328 330z" />
    <glyph glyph-name="Oslash" unicode="&#xd8;" horiz-adv-x="1593" 
d="M70 20l176 195q-168 204 -168 510q0 163 49.5 304t139.5 245t227 163.5t303 59.5q275 0 460 -158l164 183l103 -90l-172 -191q164 -209 164 -516q0 -158 -49.5 -296.5t-139.5 -241.5t-227 -162.5t-303 -59.5q-273 0 -457 156l-170 -189zM457 449l606 673
q-102 105 -266 105q-84 0 -152 -28t-113 -75t-75.5 -112t-44 -136.5t-13.5 -150.5q0 -157 58 -276zM1139 1004l-604 -668q100 -100 262 -100q104 0 183 41.5t124.5 112.5t67.5 155t22 180q0 161 -55 279z" />
    <glyph glyph-name="Ugrave" unicode="&#xd9;" horiz-adv-x="1517" 
d="M1382 1462v-909q0 -291 -162.5 -439.5t-461.5 -148.5q-300 0 -461.5 147.5t-161.5 440.5v909h322v-909q0 -53 6 -95t25 -85.5t51.5 -72t88 -46.5t130.5 -18q168 0 235.5 75t67.5 242v909h321zM711 1593l-316 291h322l196 -291h-202z" />
    <glyph glyph-name="Uacute" unicode="&#xda;" horiz-adv-x="1517" 
d="M1382 1462v-909q0 -291 -162.5 -439.5t-461.5 -148.5q-300 0 -461.5 147.5t-161.5 440.5v909h322v-909q0 -53 6 -95t25 -85.5t51.5 -72t88 -46.5t130.5 -18q168 0 235.5 75t67.5 242v909h321zM1122 1884l-315 -291h-203l197 291h321z" />
    <glyph glyph-name="Ucircumflex" unicode="&#xdb;" horiz-adv-x="1517" 
d="M1382 1462v-909q0 -291 -162.5 -439.5t-461.5 -148.5q-300 0 -461.5 147.5t-161.5 440.5v909h322v-909q0 -53 6 -95t25 -85.5t51.5 -72t88 -46.5t130.5 -18q168 0 235.5 75t67.5 242v909h321zM399 1593l228 291h266l225 -291h-239l-127 166l-131 -166h-222z" />
    <glyph glyph-name="Udieresis" unicode="&#xdc;" horiz-adv-x="1517" 
d="M1382 1462v-909q0 -291 -162.5 -439.5t-461.5 -148.5q-300 0 -461.5 147.5t-161.5 440.5v909h322v-909q0 -53 6 -95t25 -85.5t51.5 -72t88 -46.5t130.5 -18q168 0 235.5 75t67.5 242v909h321zM831 1626v240h277v-240h-277zM410 1626v240h276v-240h-276z" />
    <glyph glyph-name="Yacute" unicode="&#xdd;" horiz-adv-x="1366" 
d="M520 0v569l-538 893h362l342 -577l340 577h358l-542 -901v-561h-322zM1047 1884l-316 -291h-203l197 291h322z" />
    <glyph glyph-name="Thorn" unicode="&#xde;" horiz-adv-x="1366" 
d="M141 0v1462h322v-198h338q106 0 192.5 -26t144 -70.5t96.5 -105t56 -127t17 -140.5t-17 -140.5t-56 -127t-96.5 -105t-144 -70.5t-192.5 -26h-338v-326h-322zM463 1014v-439h250q49 0 87.5 5t76.5 19t62.5 38t40 64t15.5 94q0 67 -22 112t-64 67.5t-88 31t-108 8.5h-250z
" />
    <glyph glyph-name="germandbls" unicode="&#xdf;" horiz-adv-x="1251" 
d="M115 0v1006q-4 491 481 491q94 0 176 -24t147.5 -70.5t103.5 -123.5t38 -175q0 -97 -53 -178t-138 -107v-4q129 -28 198 -128.5t69 -237.5q0 -127 -56 -236t-159.5 -175.5t-229.5 -66.5q-79 0 -168 13v237q34 -10 84 -10q103 0 170.5 72t67.5 176q0 114 -63 182t-187 68
q-22 0 -72 -4v192q32 -4 45 -4q91 0 153 46t62 136q0 182 -196 182q-87 0 -134.5 -54t-47.5 -146v-1057h-291z" />
    <glyph glyph-name="agrave" unicode="&#xe0;" horiz-adv-x="1175" 
d="M770 410v108q-17 -15 -47.5 -25.5t-56.5 -15t-71 -10.5t-67 -10q-81 -16 -126.5 -50t-45.5 -106q0 -135 179 -135q64 0 111 20t70 46.5t36 65t15.5 62t2.5 50.5zM389 733h-291q5 79 35.5 141t78 101.5t111.5 65t131 36t142 10.5q465 0 465 -301v-550q0 -177 37 -236h-295
q-19 62 -21 102q-126 -131 -356 -131q-159 0 -259.5 81t-100.5 237q0 69 21 123t53 87t82 56.5t96.5 35t107.5 19.5q30 4 74.5 9.5t72 9.5t62.5 10t56 14.5t41 21.5t29 31.5t9 43.5q0 45 -14 74.5t-42.5 44t-58.5 19.5t-73 5q-179 0 -193 -160zM541 1190l-316 291h322
l196 -291h-202z" />
    <glyph glyph-name="aacute" unicode="&#xe1;" horiz-adv-x="1175" 
d="M770 410v108q-17 -15 -47.5 -25.5t-56.5 -15t-71 -10.5t-67 -10q-81 -16 -126.5 -50t-45.5 -106q0 -135 179 -135q64 0 111 20t70 46.5t36 65t15.5 62t2.5 50.5zM389 733h-291q5 79 35.5 141t78 101.5t111.5 65t131 36t142 10.5q465 0 465 -301v-550q0 -177 37 -236h-295
q-19 62 -21 102q-126 -131 -356 -131q-159 0 -259.5 81t-100.5 237q0 69 21 123t53 87t82 56.5t96.5 35t107.5 19.5q30 4 74.5 9.5t72 9.5t62.5 10t56 14.5t41 21.5t29 31.5t9 43.5q0 45 -14 74.5t-42.5 44t-58.5 19.5t-73 5q-179 0 -193 -160zM952 1481l-315 -291h-203
l197 291h321z" />
    <glyph glyph-name="acircumflex" unicode="&#xe2;" horiz-adv-x="1175" 
d="M770 410v108q-17 -15 -47.5 -25.5t-56.5 -15t-71 -10.5t-67 -10q-81 -16 -126.5 -50t-45.5 -106q0 -135 179 -135q64 0 111 20t70 46.5t36 65t15.5 62t2.5 50.5zM389 733h-291q5 79 35.5 141t78 101.5t111.5 65t131 36t142 10.5q465 0 465 -301v-550q0 -177 37 -236h-295
q-19 62 -21 102q-126 -131 -356 -131q-159 0 -259.5 81t-100.5 237q0 69 21 123t53 87t82 56.5t96.5 35t107.5 19.5q30 4 74.5 9.5t72 9.5t62.5 10t56 14.5t41 21.5t29 31.5t9 43.5q0 45 -14 74.5t-42.5 44t-58.5 19.5t-73 5q-179 0 -193 -160zM229 1190l228 291h266
l225 -291h-239l-127 166l-131 -166h-222z" />
    <glyph glyph-name="atilde" unicode="&#xe3;" horiz-adv-x="1175" 
d="M770 410v108q-17 -15 -47.5 -25.5t-56.5 -15t-71 -10.5t-67 -10q-81 -16 -126.5 -50t-45.5 -106q0 -135 179 -135q64 0 111 20t70 46.5t36 65t15.5 62t2.5 50.5zM389 733h-291q5 79 35.5 141t78 101.5t111.5 65t131 36t142 10.5q465 0 465 -301v-550q0 -177 37 -236h-295
q-19 62 -21 102q-126 -131 -356 -131q-159 0 -259.5 81t-100.5 237q0 69 21 123t53 87t82 56.5t96.5 35t107.5 19.5q30 4 74.5 9.5t72 9.5t62.5 10t56 14.5t41 21.5t29 31.5t9 43.5q0 45 -14 74.5t-42.5 44t-58.5 19.5t-73 5q-179 0 -193 -160zM823 1462h142
q-31 -104 -64 -151q-58 -82 -166 -82q-56 0 -168 35q-96 34 -143 34q-38 0 -57 -21.5t-29 -64.5h-125q9 41 19.5 72.5t31 66.5t46.5 58t67.5 38t93.5 15q13 0 26 -1.5t29 -6.5t23.5 -7.5t28 -10t24.5 -9.5q86 -36 135 -36q44 0 66 20t20 51z" />
    <glyph glyph-name="adieresis" unicode="&#xe4;" horiz-adv-x="1175" 
d="M770 410v108q-17 -15 -47.5 -25.5t-56.5 -15t-71 -10.5t-67 -10q-81 -16 -126.5 -50t-45.5 -106q0 -135 179 -135q64 0 111 20t70 46.5t36 65t15.5 62t2.5 50.5zM389 733h-291q5 79 35.5 141t78 101.5t111.5 65t131 36t142 10.5q465 0 465 -301v-550q0 -177 37 -236h-295
q-19 62 -21 102q-126 -131 -356 -131q-159 0 -259.5 81t-100.5 237q0 69 21 123t53 87t82 56.5t96.5 35t107.5 19.5q30 4 74.5 9.5t72 9.5t62.5 10t56 14.5t41 21.5t29 31.5t9 43.5q0 45 -14 74.5t-42.5 44t-58.5 19.5t-73 5q-179 0 -193 -160zM662 1223v239h276v-239h-276z
M240 1223v239h276v-239h-276z" />
    <glyph glyph-name="aring" unicode="&#xe5;" horiz-adv-x="1175" 
d="M770 410v108q-17 -15 -47.5 -25.5t-56.5 -15t-71 -10.5t-67 -10q-81 -16 -126.5 -50t-45.5 -106q0 -135 179 -135q64 0 111 20t70 46.5t36 65t15.5 62t2.5 50.5zM389 733h-291q5 79 35.5 141t78 101.5t111.5 65t131 36t142 10.5q465 0 465 -301v-550q0 -177 37 -236h-295
q-19 62 -21 102q-126 -131 -356 -131q-159 0 -259.5 81t-100.5 237q0 69 21 123t53 87t82 56.5t96.5 35t107.5 19.5q30 4 74.5 9.5t72 9.5t62.5 10t56 14.5t41 21.5t29 31.5t9 43.5q0 45 -14 74.5t-42.5 44t-58.5 19.5t-73 5q-179 0 -193 -160zM459 1343q0 -61 36 -102
t93 -41q58 0 94.5 41t36.5 102t-36.5 102.5t-94.5 41.5q-57 0 -93 -41.5t-36 -102.5zM338 1343q0 103 73.5 176.5t176.5 73.5q104 0 178 -73.5t74 -176.5t-74 -176t-178 -73q-103 0 -176.5 73t-73.5 176z" />
    <glyph glyph-name="ae" unicode="&#xe6;" horiz-adv-x="1857" 
d="M788 385v131q-19 -16 -51.5 -27t-58 -16t-72.5 -11.5t-67 -10.5q-79 -15 -124.5 -47t-45.5 -101q0 -73 52 -105t128 -32q42 0 82.5 12.5t76.5 38t58 69t22 99.5zM1798 459h-756q-3 -112 67 -202.5t185 -90.5q182 0 211 166h283q-42 -166 -177.5 -263.5t-310.5 -97.5
q-122 0 -226.5 44.5t-168.5 136.5q-69 -91 -186 -136t-246 -45q-79 0 -147 17t-125 53t-90 99t-33 147q0 70 21 124t52 86.5t81 56.5t94.5 35.5t105.5 20.5q27 4 76 11q62 9 90 13.5t68 12.5t56 16.5t35 22t25 31t6 41.5q0 135 -188 135q-198 0 -203 -164h-291
q4 96 47 167.5t114.5 112t156 59.5t182.5 19q108 0 203.5 -33.5t146.5 -109.5q63 73 147 108t208 35q103 0 186 -34t138.5 -92t92.5 -138.5t53.5 -171t16.5 -192.5zM1042 643h465q2 102 -60.5 176t-166.5 74q-108 0 -172 -74t-66 -176z" />
    <glyph glyph-name="ccedilla" unicode="&#xe7;" horiz-adv-x="1175" 
d="M1116 686h-285q-13 89 -68.5 135.5t-146.5 46.5q-54 0 -97 -21t-70.5 -55t-46 -79.5t-26 -92.5t-7.5 -96q0 -48 7.5 -93.5t25.5 -89.5t44.5 -77t68.5 -53.5t95 -20.5q99 0 158.5 58t73.5 158h280q-26 -202 -154.5 -314.5t-330.5 -118.5l-57 -82h4q22 11 69 11
q77 0 133 -37t56 -107q0 -58 -20 -99t-55 -63t-75.5 -32t-89.5 -10q-61 0 -108.5 6.5t-70.5 13.5t-75 25l43 98q88 -37 172 -37q82 0 82 70q0 65 -82 65q-42 0 -82 -14l-43 49l103 147q-209 22 -336 169.5t-127 367.5q0 254 144 413.5t396 159.5q95 0 181 -25t155 -73.5
t112 -126.5t50 -176z" />
    <glyph glyph-name="egrave" unicode="&#xe8;" horiz-adv-x="1175" 
d="M1114 459h-764q12 -269 260 -269q84 0 150 42.5t80 95.5h256q-117 -357 -496 -357q-248 0 -394.5 154t-146.5 403q0 158 67.5 285t191.5 200.5t282 73.5q105 0 193 -34t149.5 -93.5t102.5 -139t58 -171t11 -190.5zM350 643h473q-21 114 -74.5 169.5t-156.5 55.5
q-65 0 -114 -23t-75 -59.5t-38.5 -72t-14.5 -70.5zM541 1190l-316 291h322l196 -291h-202z" />
    <glyph glyph-name="eacute" unicode="&#xe9;" horiz-adv-x="1175" 
d="M1114 459h-764q12 -269 260 -269q84 0 150 42.5t80 95.5h256q-117 -357 -496 -357q-248 0 -394.5 154t-146.5 403q0 158 67.5 285t191.5 200.5t282 73.5q105 0 193 -34t149.5 -93.5t102.5 -139t58 -171t11 -190.5zM350 643h473q-21 114 -74.5 169.5t-156.5 55.5
q-65 0 -114 -23t-75 -59.5t-38.5 -72t-14.5 -70.5zM952 1481l-315 -291h-203l197 291h321z" />
    <glyph glyph-name="ecircumflex" unicode="&#xea;" horiz-adv-x="1175" 
d="M1114 459h-764q12 -269 260 -269q84 0 150 42.5t80 95.5h256q-117 -357 -496 -357q-248 0 -394.5 154t-146.5 403q0 158 67.5 285t191.5 200.5t282 73.5q105 0 193 -34t149.5 -93.5t102.5 -139t58 -171t11 -190.5zM350 643h473q-21 114 -74.5 169.5t-156.5 55.5
q-65 0 -114 -23t-75 -59.5t-38.5 -72t-14.5 -70.5zM229 1190l228 291h266l225 -291h-239l-127 166l-131 -166h-222z" />
    <glyph glyph-name="edieresis" unicode="&#xeb;" horiz-adv-x="1175" 
d="M1114 459h-764q12 -269 260 -269q84 0 150 42.5t80 95.5h256q-117 -357 -496 -357q-248 0 -394.5 154t-146.5 403q0 158 67.5 285t191.5 200.5t282 73.5q105 0 193 -34t149.5 -93.5t102.5 -139t58 -171t11 -190.5zM350 643h473q-21 114 -74.5 169.5t-156.5 55.5
q-65 0 -114 -23t-75 -59.5t-38.5 -72t-14.5 -70.5zM662 1223v239h276v-239h-276zM240 1223v239h276v-239h-276z" />
    <glyph glyph-name="igrave" unicode="&#xec;" horiz-adv-x="528" 
d="M119 0v1059h291v-1059h-291zM217 1190l-315 291h321l197 -291h-203z" />
    <glyph glyph-name="iacute" unicode="&#xed;" horiz-adv-x="528" 
d="M119 0v1059h291v-1059h-291zM629 1481l-316 -291h-202l196 291h322z" />
    <glyph glyph-name="icircumflex" unicode="&#xee;" horiz-adv-x="528" 
d="M119 0v1059h291v-1059h-291zM-94 1190l227 291h266l226 -291h-240l-127 166l-131 -166h-221z" />
    <glyph glyph-name="idieresis" unicode="&#xef;" horiz-adv-x="528" 
d="M119 0v1059h291v-1059h-291zM338 1223v239h276v-239h-276zM-84 1223v239h277v-239h-277z" />
    <glyph glyph-name="eth" unicode="&#xf0;" horiz-adv-x="1251" 
d="M625 190q72 0 124 28.5t80 78t41 107t13 124.5q0 60 -14.5 114t-44.5 100t-81.5 73t-119.5 27t-119 -27.5t-79.5 -74t-42 -99.5t-13.5 -113q0 -67 13 -124.5t41 -107t79.5 -78t122.5 -28.5zM272 1214l220 111q-82 59 -173 102l189 142q113 -62 203 -135l252 127l106 -121
l-233 -117q170 -164 256 -350t82 -414q0 -168 -67 -301t-192.5 -210t-289.5 -77q-247 0 -397 149t-150 386q0 78 17 152t54.5 143t91.5 121t133.5 83t174.5 31q159 0 276 -82h4q-54 126 -208 260l-230 -114z" />
    <glyph glyph-name="ntilde" unicode="&#xf1;" horiz-adv-x="1214" 
d="M111 0v1059h276v-148h6q54 86 141 131t183 45q113 0 190.5 -30.5t119.5 -90.5t59.5 -135.5t17.5 -179.5v-651h-291v598q0 133 -43.5 196.5t-142.5 63.5q-119 0 -172.5 -71t-53.5 -232v-555h-290zM842 1462h141q-32 -106 -63 -151q-58 -82 -166 -82q-56 0 -168 35
q-96 34 -144 34q-38 0 -57 -21.5t-29 -64.5h-125q9 41 19.5 72.5t31 66.5t46.5 58t67.5 38t93.5 15q11 0 23.5 -1.5t21.5 -3.5t23 -6.5t21 -7t22.5 -8.5t20.5 -8q86 -36 135 -36q44 0 66 20t20 51z" />
    <glyph glyph-name="ograve" unicode="&#xf2;" horiz-adv-x="1251" 
d="M78 528q0 254 149 406.5t398 152.5q250 0 399.5 -152.5t149.5 -406.5q0 -253 -149.5 -405t-399.5 -152q-249 0 -398 152.5t-149 404.5zM369 528q0 -67 13 -124.5t41 -107t79.5 -78t122.5 -28.5q72 0 124 28.5t80 78t41 107t13 124.5q0 68 -13 125.5t-41 107.5t-80 78.5
t-124 28.5q-71 0 -122.5 -28.5t-79.5 -78.5t-41 -107.5t-13 -125.5zM578 1190l-316 291h322l196 -291h-202z" />
    <glyph glyph-name="oacute" unicode="&#xf3;" horiz-adv-x="1251" 
d="M78 528q0 254 149 406.5t398 152.5q250 0 399.5 -152.5t149.5 -406.5q0 -253 -149.5 -405t-399.5 -152q-249 0 -398 152.5t-149 404.5zM369 528q0 -67 13 -124.5t41 -107t79.5 -78t122.5 -28.5q72 0 124 28.5t80 78t41 107t13 124.5q0 68 -13 125.5t-41 107.5t-80 78.5
t-124 28.5q-71 0 -122.5 -28.5t-79.5 -78.5t-41 -107.5t-13 -125.5zM989 1481l-315 -291h-203l197 291h321z" />
    <glyph glyph-name="ocircumflex" unicode="&#xf4;" horiz-adv-x="1251" 
d="M78 528q0 254 149 406.5t398 152.5q250 0 399.5 -152.5t149.5 -406.5q0 -253 -149.5 -405t-399.5 -152q-249 0 -398 152.5t-149 404.5zM369 528q0 -67 13 -124.5t41 -107t79.5 -78t122.5 -28.5q72 0 124 28.5t80 78t41 107t13 124.5q0 68 -13 125.5t-41 107.5t-80 78.5
t-124 28.5q-71 0 -122.5 -28.5t-79.5 -78.5t-41 -107.5t-13 -125.5zM266 1190l228 291h266l225 -291h-240l-127 166l-131 -166h-221z" />
    <glyph glyph-name="otilde" unicode="&#xf5;" horiz-adv-x="1251" 
d="M78 528q0 254 149 406.5t398 152.5q250 0 399.5 -152.5t149.5 -406.5q0 -253 -149.5 -405t-399.5 -152q-249 0 -398 152.5t-149 404.5zM369 528q0 -67 13 -124.5t41 -107t79.5 -78t122.5 -28.5q72 0 124 28.5t80 78t41 107t13 124.5q0 68 -13 125.5t-41 107.5t-80 78.5
t-124 28.5q-71 0 -122.5 -28.5t-79.5 -78.5t-41 -107.5t-13 -125.5zM860 1462h141q-32 -106 -63 -151q-58 -82 -166 -82q-56 0 -168 35q-96 34 -143 34q-38 0 -57 -21.5t-29 -64.5h-125q9 41 19.5 72.5t31 66.5t46.5 58t67.5 38t93.5 15q13 0 26 -1.5t29 -6.5t23.5 -7.5
t28 -10t24.5 -9.5q86 -36 135 -36q44 0 66 20t20 51z" />
    <glyph glyph-name="odieresis" unicode="&#xf6;" horiz-adv-x="1251" 
d="M78 528q0 254 149 406.5t398 152.5q250 0 399.5 -152.5t149.5 -406.5q0 -253 -149.5 -405t-399.5 -152q-249 0 -398 152.5t-149 404.5zM369 528q0 -67 13 -124.5t41 -107t79.5 -78t122.5 -28.5q72 0 124 28.5t80 78t41 107t13 124.5q0 68 -13 125.5t-41 107.5t-80 78.5
t-124 28.5q-71 0 -122.5 -28.5t-79.5 -78.5t-41 -107.5t-13 -125.5zM698 1223v239h277v-239h-277zM276 1223v239h277v-239h-277z" />
    <glyph glyph-name="divide" unicode="&#xf7;" horiz-adv-x="1228" 
d="M98 408v219h1035v-219h-1035zM442 942q0 72 51.5 123t122.5 51q69 0 120.5 -52t51.5 -122q0 -65 -51.5 -118.5t-118.5 -53.5q-72 0 -124 51t-52 121zM442 92q0 71 51.5 121.5t122.5 50.5q69 0 120.5 -51t51.5 -121q0 -66 -51.5 -120t-118.5 -54q-72 0 -124 51.5
t-52 122.5z" />
    <glyph glyph-name="oslash" unicode="&#xf8;" horiz-adv-x="1251" 
d="M399 352l396 451q-62 65 -170 65q-71 0 -122.5 -28.5t-79.5 -78.5t-41 -107.5t-13 -125.5q0 -109 30 -176zM850 715l-399 -455q63 -70 174 -70q72 0 124 28.5t80 78t41 107t13 124.5q0 108 -33 187zM90 2l123 139q-135 147 -135 387q0 254 149 406.5t398 152.5
q193 0 333 -98l109 125l76 -65l-111 -125q142 -151 142 -396q0 -253 -149.5 -405t-399.5 -152q-199 0 -338 103l-121 -137z" />
    <glyph glyph-name="ugrave" unicode="&#xf9;" horiz-adv-x="1214" 
d="M1104 1059v-1059h-277v147h-6q-54 -86 -140.5 -131t-182.5 -45q-113 0 -190.5 30.5t-119.5 91t-59.5 136t-17.5 179.5v651h290v-598q0 -133 44 -196.5t143 -63.5q119 0 172 71t53 232v555h291zM559 1190l-315 291h321l197 -291h-203z" />
    <glyph glyph-name="uacute" unicode="&#xfa;" horiz-adv-x="1214" 
d="M1104 1059v-1059h-277v147h-6q-54 -86 -140.5 -131t-182.5 -45q-113 0 -190.5 30.5t-119.5 91t-59.5 136t-17.5 179.5v651h290v-598q0 -133 44 -196.5t143 -63.5q119 0 172 71t53 232v555h291zM971 1481l-316 -291h-202l196 291h322z" />
    <glyph glyph-name="ucircumflex" unicode="&#xfb;" horiz-adv-x="1214" 
d="M1104 1059v-1059h-277v147h-6q-54 -86 -140.5 -131t-182.5 -45q-113 0 -190.5 30.5t-119.5 91t-59.5 136t-17.5 179.5v651h290v-598q0 -133 44 -196.5t143 -63.5q119 0 172 71t53 232v555h291zM248 1190l227 291h266l226 -291h-240l-127 166l-131 -166h-221z" />
    <glyph glyph-name="udieresis" unicode="&#xfc;" horiz-adv-x="1214" 
d="M1104 1059v-1059h-277v147h-6q-54 -86 -140.5 -131t-182.5 -45q-113 0 -190.5 30.5t-119.5 91t-59.5 136t-17.5 179.5v651h290v-598q0 -133 44 -196.5t143 -63.5q119 0 172 71t53 232v555h291zM680 1223v239h276v-239h-276zM258 1223v239h277v-239h-277z" />
    <glyph glyph-name="yacute" unicode="&#xfd;" horiz-adv-x="1062" 
d="M1075 1059l-442 -1192q-48 -128 -131.5 -184t-233.5 -56q-70 0 -178 11v239q148 -11 170 -10q48 5 78 37.5t33 75t-11 86.5l-372 993h311l240 -725h4l231 725h301zM895 1481l-315 -291h-203l196 291h322z" />
    <glyph glyph-name="thorn" unicode="&#xfe;" horiz-adv-x="1251" 
d="M111 -373v1835h290v-538h5q51 82 130 122.5t171 40.5q97 0 177 -30.5t136 -83t94 -125t56 -155.5t18 -175q0 -108 -30 -205t-86 -174t-146.5 -122.5t-202.5 -45.5q-97 0 -181 41.5t-136 118.5h-5v-504h-290zM897 526q0 66 -14 125t-43 108.5t-79.5 79t-117.5 29.5
q-55 0 -99 -19.5t-72 -51.5t-46.5 -76.5t-26.5 -92.5t-8 -102q0 -68 13.5 -126t42.5 -106t79.5 -76t118.5 -28q55 0 99 18.5t72 50t46.5 75t26.5 91t8 101.5z" />
    <glyph glyph-name="ydieresis" unicode="&#xff;" horiz-adv-x="1062" 
d="M1075 1059l-442 -1192q-48 -128 -131.5 -184t-233.5 -56q-70 0 -178 11v239q148 -11 170 -10q48 5 78 37.5t33 75t-11 86.5l-372 993h311l240 -725h4l231 725h301zM604 1223v239h277v-239h-277zM182 1223v239h277v-239h-277z" />
    <glyph glyph-name="dotlessi" unicode="&#x131;" horiz-adv-x="528" 
d="M119 0v1059h291v-1059h-291z" />
    <glyph glyph-name="Lslash" unicode="&#x141;" horiz-adv-x="1214" 
d="M141 0v438l-164 -114v229l164 115v794h322v-569l432 303v-229l-432 -303v-394h713v-270h-1035z" />
    <glyph glyph-name="lslash" unicode="&#x142;" horiz-adv-x="528" 
d="M119 0v586l-137 -109v209l137 109v667h291v-438l137 109v-209l-137 -109v-815h-291z" />
    <glyph glyph-name="OE" unicode="&#x152;" horiz-adv-x="2238" 
d="M1114 0v111h-4q-63 -69 -158.5 -107.5t-193.5 -38.5q-127 0 -236.5 39.5t-190 110.5t-138 166t-86.5 207.5t-29 234.5t29.5 236.5t88 211.5t140 170t192 114.5t236.5 41.5q105 0 197.5 -33.5t148.5 -105.5h4v104h1024v-270h-725v-313h664v-250h-664v-359h739v-270h-1038z
M1102 569v349q0 137 -89 223t-227 86q-103 0 -180 -43t-121 -116.5t-65 -159t-21 -181.5q0 -94 21.5 -178.5t65.5 -156t119.5 -114t174.5 -42.5q147 0 234.5 91.5t87.5 241.5z" />
    <glyph glyph-name="oe" unicode="&#x153;" horiz-adv-x="1896" 
d="M1081 643h465q-5 105 -64 165t-171 60q-105 0 -165 -63.5t-65 -161.5zM594 190q56 0 99 21.5t67.5 54.5t40 80t21 91t5.5 95q0 48 -4.5 90t-19.5 89t-39 80t-66 55t-98 22q-51 0 -92 -20.5t-66.5 -53.5t-42.5 -79t-23.5 -93t-6.5 -98q0 -59 11 -114t35.5 -106.5
t70.5 -82.5t108 -31zM1837 459h-756q0 -120 64.5 -194.5t187.5 -74.5q154 0 213 146h283q-51 -171 -183 -268t-313 -97q-120 0 -222.5 44t-160.5 137q-52 -91 -155.5 -136t-219.5 -45q-119 0 -215 45.5t-157 124t-93 179.5t-32 215q0 237 144 394.5t376 157.5
q114 0 213 -40.5t152 -126.5q53 78 153 122.5t201 44.5q136 0 238.5 -50t162.5 -138t89.5 -198.5t29.5 -241.5z" />
    <glyph glyph-name="Scaron" unicode="&#x160;" horiz-adv-x="1329" 
d="M49 485h311q0 -137 91.5 -203.5t232.5 -66.5q48 0 93 8t91 26.5t73.5 56.5t27.5 91q0 29 -10.5 53.5t-26.5 42.5t-44.5 35t-54 28t-67.5 23.5t-72 20t-79.5 19.5t-79.5 20q-52 14 -93 27t-88.5 32.5t-82.5 41.5t-69 54t-55.5 69t-35 86t-13.5 106q0 108 48 194.5
t127 139.5t174.5 80.5t197.5 27.5q94 0 178.5 -16t159.5 -52.5t129.5 -90.5t86.5 -133.5t32 -178.5h-311q-4 64 -27 108.5t-64 68.5t-88.5 34t-109.5 10q-56 0 -103.5 -15t-82.5 -54t-35 -97q0 -78 66 -110.5t336 -101.5q23 -6 34 -9q128 -33 192 -63q242 -114 242 -363
q0 -208 -159.5 -338.5t-448.5 -130.5q-125 0 -235 31.5t-198.5 93t-139.5 163.5t-50 232zM1024 1884l-225 -291h-267l-227 291h230l131 -166l133 166h225z" />
    <glyph glyph-name="scaron" unicode="&#x161;" horiz-adv-x="1099" 
d="M59 344h277q1 -89 65 -133.5t158 -44.5q47 0 87.5 11.5t72 43.5t31.5 80q0 26 -15.5 47t-39 35.5t-70.5 29.5t-89.5 25.5t-115.5 26.5q-57 13 -100 26t-90 36t-77 51.5t-49.5 72t-19.5 97.5q0 78 26.5 138.5t70 97.5t104.5 61t124 33t136 9t135.5 -10t121.5 -34
t102.5 -61.5t72 -96.5t35.5 -135h-277q-10 143 -198 143q-162 0 -162 -98q0 -22 9 -39.5t28.5 -31t39.5 -23t54.5 -19t60 -15t69 -15t69.5 -15.5q58 -13 101 -27t89.5 -38t76 -53.5t49 -75.5t19.5 -103q0 -81 -27.5 -145t-72.5 -105.5t-108.5 -68.5t-131 -38.5t-143.5 -11.5
q-77 0 -145.5 11.5t-132.5 39t-110.5 69.5t-76.5 106.5t-33 146.5zM909 1481l-225 -291h-266l-228 291h230l131 -166l133 166h225z" />
    <glyph glyph-name="Ydieresis" unicode="&#x178;" horiz-adv-x="1366" 
d="M520 0v569l-538 893h362l342 -577l340 577h358l-542 -901v-561h-322zM756 1626v240h276v-240h-276zM334 1626v240h276v-240h-276z" />
    <glyph glyph-name="Zcaron" unicode="&#x17d;" horiz-adv-x="1327" 
d="M47 0v254l784 938h-722v270h1151v-254l-785 -938h805v-270h-1233zM1024 1884l-225 -291h-267l-227 291h230l131 -166l133 166h225z" />
    <glyph glyph-name="zcaron" unicode="&#x17e;" horiz-adv-x="1062" 
d="M45 0v219l551 621h-510v219h893v-219l-551 -621h590v-219h-973zM891 1481l-225 -291h-267l-227 291h229l131 -166l134 166h225z" />
    <glyph glyph-name="florin" unicode="&#x192;" 
d="M-10 -342l39 219q40 -6 82 -6q73 -1 103.5 33.5t43.5 111.5l129 674h-188l37 195h186l49 260q37 195 130 273.5t292 78.5q83 0 154 -14l-37 -219q-36 14 -82 14q-77 0 -110 -29t-46 -98l-51 -266h201l-33 -195h-205l-115 -635q-16 -88 -35 -147.5t-50.5 -111.5t-76 -81.5
t-110.5 -46t-156 -16.5q-65 0 -151 6z" />
    <glyph glyph-name="circumflex" unicode="&#x2c6;" horiz-adv-x="530" 
d="M-94 1190l227 291h266l226 -291h-240l-127 166l-131 -166h-221z" />
    <glyph glyph-name="caron" unicode="&#x2c7;" horiz-adv-x="530" 
d="M625 1481l-226 -291h-266l-227 291h229l131 -166l133 166h226z" />
    <glyph glyph-name="uni02C9" unicode="&#x2c9;" horiz-adv-x="530" 
d="M-117 1262v153h764v-153h-764z" />
    <glyph glyph-name="breve" unicode="&#x2d8;" horiz-adv-x="530" 
d="M-80 1489h133q10 -76 70.5 -111t132.5 -35q190 0 225 146h129q-39 -299 -364 -299q-148 0 -231 76t-95 223z" />
    <glyph glyph-name="dotaccent" unicode="&#x2d9;" horiz-adv-x="530" 
d="M127 1223v239h276v-239h-276z" />
    <glyph glyph-name="ring" unicode="&#x2da;" horiz-adv-x="530" 
d="M135 1343q0 -61 36 -102t93 -41q58 0 94.5 41t36.5 102t-36.5 102.5t-94.5 41.5q-57 0 -93 -41.5t-36 -102.5zM14 1343q0 103 73.5 176.5t176.5 73.5q104 0 178 -73.5t74 -176.5t-74 -176t-178 -73q-103 0 -176.5 73t-73.5 176z" />
    <glyph glyph-name="ogonek" unicode="&#x2db;" horiz-adv-x="530" 
d="M414 -262l98 -45q-110 -139 -274 -139q-21 0 -43 2.5t-56 13t-59 29t-43.5 54.5t-18.5 85q0 128 234 268h133q-95 -86 -132.5 -145.5t-37.5 -114.5q0 -30 24 -50t56 -20q74 0 119 62z" />
    <glyph glyph-name="tilde" unicode="&#x2dc;" horiz-adv-x="530" 
d="M500 1462h141q-32 -106 -63 -151q-58 -82 -166 -82q-56 0 -168 35q-96 34 -144 34q-38 0 -57 -21.5t-29 -64.5h-125q9 41 19.5 72.5t31 66.5t46.5 58t67.5 38t93.5 15q11 0 23.5 -1.5t21.5 -3.5t23 -6.5t21 -7t22.5 -8.5t20.5 -8q86 -36 135 -36q44 0 66 20t20 51z" />
    <glyph glyph-name="hungarumlaut" unicode="&#x2dd;" horiz-adv-x="530" 
d="M393 1481l-305 -291h-203l187 291h321zM817 1481l-305 -291h-203l187 291h321z" />
    <glyph glyph-name="uni03A9" unicode="&#x3a9;" horiz-adv-x="1441" 
d="M354 207v6q-107 102 -178.5 251.5t-71.5 330.5q0 182 77.5 333t220.5 240.5t323 89.5q142 0 260 -58t192 -152t114 -208t40 -231q0 -187 -72.5 -342.5t-179.5 -253.5v-6h281v-207h-535v154q107 71 177.5 221.5t70.5 378.5q0 97 -23 185t-65.5 156.5t-110 109t-149.5 40.5
q-162 0 -261 -141t-99 -361q0 -211 72 -368t177 -221v-154h-538v207h278z" />
    <glyph glyph-name="uni03BC" unicode="&#x3bc;" horiz-adv-x="1214" 
d="M1104 1059v-1059h-277v147h-6q-51 -82 -130 -129t-136 -47q-109 0 -154 49v-393h-290v1432h290v-598q0 -133 44 -196.5t143 -63.5q119 0 172 71t53 232v555h291z" />
    <glyph glyph-name="pi" unicode="&#x3c0;" horiz-adv-x="1224" 
d="M1176 860h-144v-555q0 -183 27 -305h-248q-35 60 -35 293v567h-284q-9 -193 -45.5 -452.5t-86.5 -407.5h-249q51 175 88.5 430t40.5 430q-140 0 -201 -20l-29 172q88 67 332 67h854z" />
    <glyph glyph-name="endash" unicode="&#x2013;" horiz-adv-x="1024" 
d="M0 434v250h1024v-250h-1024z" />
    <glyph glyph-name="emdash" unicode="&#x2014;" horiz-adv-x="2048" 
d="M266 434v250h1516v-250h-1516z" />
    <glyph glyph-name="quoteleft" unicode="&#x2018;" horiz-adv-x="569" 
d="M430 1120v-315h-291v313q-4 135 79 230.5t212 113.5v-135q-74 -25 -104.5 -76t-30.5 -131h135z" />
    <glyph glyph-name="quoteright" unicode="&#x2019;" horiz-adv-x="569" 
d="M139 1147v315h291v-313q4 -135 -79 -230.5t-212 -113.5v135q74 25 104.5 76t30.5 131h-135z" />
    <glyph glyph-name="quotesinglbase" unicode="&#x201a;" horiz-adv-x="569" 
d="M139 0v315h291v-313q4 -135 -79 -230.5t-212 -113.5v135q74 25 104.5 76t30.5 131h-135z" />
    <glyph glyph-name="quotedblleft" unicode="&#x201c;" horiz-adv-x="948" 
d="M838 1120v-315h-291v313q-4 135 79 230.5t212 113.5v-135q-74 -25 -105 -76t-31 -131h136zM401 1120v-315h-290v313q-4 135 78.5 231t211.5 113v-135q-74 -25 -104.5 -76t-30.5 -131h135z" />
    <glyph glyph-name="quotedblright" unicode="&#x201d;" horiz-adv-x="948" 
d="M547 1147v315h291v-313q4 -135 -79 -230.5t-212 -113.5v135q74 25 104.5 76t30.5 131h-135zM111 1147v315h290v-313q4 -135 -78.5 -231t-211.5 -113v135q74 25 104.5 76t30.5 131h-135z" />
    <glyph glyph-name="quotedblbase" unicode="&#x201e;" horiz-adv-x="948" 
d="M547 0v315h291v-313q4 -135 -79 -230.5t-212 -113.5v135q74 25 104.5 76t30.5 131h-135zM111 0v315h290v-313q4 -135 -78.5 -231t-211.5 -113v135q74 25 104.5 76t30.5 131h-135z" />
    <glyph glyph-name="dagger" unicode="&#x2020;" 
d="M430 -340v1159h-381v240h381v403h277v-403h383v-240h-383v-1159h-277z" />
    <glyph glyph-name="daggerdbl" unicode="&#x2021;" 
d="M430 -340v395h-381v240h381v524h-381v240h381v403h277v-403h383v-240h-383v-524h383v-240h-383v-395h-277z" />
    <glyph glyph-name="bullet" unicode="&#x2022;" horiz-adv-x="1026" 
d="M147 731q0 152 106.5 258.5t258.5 106.5t259.5 -106.5t107.5 -258.5t-107.5 -259t-259.5 -107t-258.5 107t-106.5 259z" />
    <glyph glyph-name="ellipsis" unicode="&#x2026;" horiz-adv-x="2048" 
d="M180 0v315h322v-315h-322zM862 0v315h322v-315h-322zM1544 0v315h322v-315h-322z" />
    <glyph glyph-name="perthousand" unicode="&#x2030;" horiz-adv-x="2349" 
d="M1085 352q0 -35 1 -59.5t4.5 -56t11 -53t20 -41t32.5 -29t46 -9.5q28 0 49 8.5t33 28t19.5 35.5t10 48.5t3 48.5t0.5 51q0 34 -0.5 54t-3.5 49.5t-10.5 46.5t-19 35t-31.5 26t-46 8q-33 0 -56.5 -13t-35.5 -31t-18.5 -47t-7.5 -49.5t-1 -50.5zM901 317q0 75 17.5 138
t52.5 113.5t94.5 79t136.5 28.5q81 0 140 -27t92.5 -77t49 -112.5t15.5 -140.5q0 -158 -74 -253t-225 -95q-140 0 -219.5 95t-79.5 251zM1610 317q0 75 17.5 138t52.5 113.5t94.5 79t136.5 28.5q81 0 140 -27t92.5 -77t49 -112.5t15.5 -140.5q0 -158 -74 -253t-225 -95
q-140 0 -219.5 95t-79.5 251zM1794 352q0 -35 1 -59.5t4.5 -56t11 -53t20 -41t32.5 -29t46 -9.5q28 0 49 8.5t33 28t19 35.5t9.5 49t3 47.5t0.5 51.5q0 35 -0.5 54t-3.5 49t-10 47t-19 35t-31.5 26t-45.5 8q-33 0 -56.5 -13t-35.5 -31t-18.5 -47t-7.5 -49.5t-1 -50.5z
M141 1104q0 156 75 257t226 101q81 0 140 -27t92.5 -77t49 -112t15.5 -140q0 -158 -74 -253t-225 -95q-140 0 -219.5 95t-79.5 251zM326 1139q0 -36 1 -60t4.5 -56t11 -52.5t19.5 -40.5t32 -29.5t46 -9.5q24 0 43 8t31 17.5t20.5 30.5t12.5 35t6 42.5t2 41.5v44
q0 34 -0.5 54t-3.5 49.5t-10.5 46.5t-19 35t-31.5 26t-46 8q-33 0 -56.5 -13t-35 -30.5t-18 -47t-7.5 -49t-1 -50.5zM307 -45l848 1524h174l-844 -1524h-178z" />
    <glyph glyph-name="guilsinglleft" unicode="&#x2039;" horiz-adv-x="493" 
d="M408 164l-322 256v276l322 252v-246l-185 -145l185 -147v-246z" />
    <glyph glyph-name="guilsinglright" unicode="&#x203a;" horiz-adv-x="493" 
d="M86 948l322 -252v-276l-322 -256v246l184 147l-184 145v246z" />
    <glyph glyph-name="fraction" unicode="&#x2044;" horiz-adv-x="342" 
d="M-340 -45l848 1524h174l-844 -1524h-178z" />
    <glyph glyph-name="Euro" unicode="&#x20ac;" 
d="M1180 1376l-125 -256q-145 92 -269 92q-215 0 -286 -280h499l-63 -148h-459l-2 -86h436l-63 -147h-356q65 -324 303 -324q151 0 315 129l-2 -309q-140 -82 -315 -82q-261 0 -416 168q-143 152 -187 418h-157l63 147h82q0 72 2 86h-149l63 148h105q50 248 202 391
q163 156 406 156q175 0 373 -103z" />
    <glyph glyph-name="afii61289" unicode="&#x2113;" horiz-adv-x="1044" 
d="M903 371l105 -107q-144 -284 -422 -284q-173 0 -262.5 94t-104.5 245q0 15 -2 23q-81 -66 -104 -84l-66 137q19 16 56 46t63 52t49 44v520q0 133 28.5 234.5t79.5 163t115.5 92t141.5 30.5q95 0 160 -50t93.5 -129.5t28.5 -183.5q0 -175 -102.5 -349t-298.5 -365l2 -88
q1 -110 52.5 -170t129.5 -60q77 0 143.5 54.5t114.5 134.5zM461 1061v-326q111 127 176 254.5t65 233.5q0 84 -26 128t-86 44q-54 0 -91.5 -78t-37.5 -256z" />
    <glyph glyph-name="trademark" unicode="&#x2122;" horiz-adv-x="2048" 
d="M1901 1462v-844h-197v599h-4l-217 -599h-142l-217 599h-4v-599h-196v844h278l211 -555l211 555h277zM815 1462v-164h-240v-680h-208v680h-240v164h688z" />
    <glyph glyph-name="Omega" unicode="&#x2126;" horiz-adv-x="1441" 
d="M354 207v6q-107 102 -178.5 251.5t-71.5 330.5q0 182 77.5 333t220.5 240.5t323 89.5q142 0 260 -58t192 -152t114 -208t40 -231q0 -187 -72.5 -342.5t-179.5 -253.5v-6h281v-207h-535v154q107 71 177.5 221.5t70.5 378.5q0 97 -23 185t-65.5 156.5t-110 109t-149.5 40.5
q-162 0 -261 -141t-99 -361q0 -211 72 -368t177 -221v-154h-538v207h278z" />
    <glyph glyph-name="estimated" unicode="&#x212e;" horiz-adv-x="1798" 
d="M1726 696h-1341q-10 0 -10 -8v-407q0 -26 16 -45q101 -104 232 -163t276 -59q157 0 296 66t239 182h118q-112 -133 -285.5 -211t-369.5 -78q-168 0 -321.5 59t-264 158.5t-176 237t-65.5 289.5t65.5 290t176 237.5t264 158.5t321.5 59q169 0 322.5 -59t264.5 -158.5
t176.5 -237.5t65.5 -290v-21zM1421 750v407q0 29 -20 49q-100 99 -229.5 155t-272.5 56q-144 0 -274.5 -58t-231.5 -161q-18 -18 -18 -49v-399q0 -4 3 -9.5t7 -5.5h1028q8 0 8 15z" />
    <glyph glyph-name="partialdiff" unicode="&#x2202;" horiz-adv-x="1171" 
d="M211 1309l-72 192q157 117 373 117q113 0 213 -50t177.5 -144.5t123 -246t45.5 -341.5q0 -256 -66.5 -448t-196.5 -299t-308 -107q-103 0 -186 44t-133 115.5t-76.5 155.5t-26.5 170q0 122 34.5 224t94.5 170.5t140 106.5t171 38q59 0 112.5 -17.5t90.5 -45t60.5 -53
t37.5 -48.5h2q2 16 2 69q0 132 -42 244.5t-122 182t-180 69.5q-153 0 -268 -98zM524 195h2q73 0 133.5 67t93.5 162.5t44 202.5q-16 60 -79 117t-149 57q-103 0 -171 -101.5t-68 -240.5q0 -113 53.5 -188.5t140.5 -75.5z" />
    <glyph glyph-name="Delta" unicode="&#x2206;" horiz-adv-x="1339" 
d="M55 0v150l469 1318h303l455 -1314v-154h-1227zM317 207h691l-224 610q-12 41 -57.5 180.5t-58.5 190.5h-6q-9 -40 -51 -165.5t-56 -174.5z" />
    <glyph glyph-name="product" unicode="&#x220f;" horiz-adv-x="1470" 
d="M1417 1204h-207v-1403h-252v1403h-448v-1403h-252v1403h-207v232h1366v-232z" />
    <glyph glyph-name="summation" unicode="&#x2211;" 
d="M1098 -199h-1051v164l496 656l-477 636v179h999v-215h-657v-9l421 -550l-469 -617v-6h738v-238z" />
    <glyph glyph-name="minus" unicode="&#x2212;" horiz-adv-x="1228" 
d="M98 408v219h1035v-219h-1035z" />
    <glyph glyph-name="uni2215" unicode="&#x2215;" horiz-adv-x="342" 
d="M-340 -45l848 1524h174l-844 -1524h-178z" />
    <glyph glyph-name="uni2219" unicode="&#x2219;" horiz-adv-x="569" 
d="M113 588q0 72 51.5 123t122.5 51q69 0 120.5 -52t51.5 -122q0 -65 -51.5 -118.5t-118.5 -53.5q-72 0 -124 51t-52 121z" />
    <glyph glyph-name="radical" unicode="&#x221a;" horiz-adv-x="1208" 
d="M1225 1722l-459 -2011h-203l-305 903l-152 -59l-40 143l344 140l213 -658q8 -36 22.5 -96.5t18.5 -81.5l4 -2q16 117 30 193l351 1529h176z" />
    <glyph glyph-name="infinity" unicode="&#x221e;" horiz-adv-x="1593" 
d="M1493 594v-2q0 -159 -97.5 -255.5t-230.5 -96.5q-95 0 -181.5 51.5t-184.5 179.5q-61 -74 -110 -119.5t-119.5 -78.5t-149.5 -33q-131 0 -226.5 97t-95.5 245q0 154 96 252t242 98q109 0 196.5 -58t172.5 -169q1 1 26.5 29.5t29.5 32.5t28.5 29.5t33 32t33 27t38.5 26.5
t39 19.5t45.5 18t46.5 8.5t53 4q136 0 225.5 -93.5t89.5 -244.5zM438 379h2q33 0 66.5 12.5t58.5 28.5t57.5 47.5t49.5 51t49 56.5q-28 38 -36.5 49.5t-34 43.5t-38 43.5t-37.5 33t-44.5 29.5t-46 15.5t-54.5 7.5q-86 0 -137 -61t-51 -154q0 -84 56 -143.5t140 -59.5z
M1163 797h-2q-30 0 -60.5 -11t-53 -25t-51 -40.5t-43.5 -43t-41.5 -47.5t-34.5 -40q98 -121 158 -166t134 -45q82 0 131.5 64t49.5 139q0 94 -52 154.5t-135 60.5z" />
    <glyph glyph-name="integral" unicode="&#x222b;" horiz-adv-x="806" 
d="M762 1751l-29 -174q-36 16 -71 16q-66 0 -103 -51q-55 -73 -55 -348q0 -163 14 -482t14 -507q0 -282 -73 -412q-39 -75 -109.5 -111t-150.5 -36q-96 0 -158 32l33 183q47 -21 88 -21q60 0 90 41q55 77 55 322q0 189 -15.5 516.5t-15.5 499.5q0 180 28.5 286.5t94.5 175.5
q41 47 104.5 71t133.5 24q73 0 125 -25z" />
    <glyph glyph-name="approxequal" unicode="&#x2248;" horiz-adv-x="1124" 
d="M952 926l90 -82q-50 -97 -121 -154t-155 -57q-59 0 -107.5 18.5t-121.5 63.5q-54 34 -93 50.5t-84 16.5q-32 0 -59.5 -11.5t-52 -35.5t-40 -44.5t-38.5 -55.5l-92 84q46 93 125 151t170 58q24 0 48 -4t40.5 -8.5t39.5 -15t31.5 -15.5t31.5 -18t26 -15q11 -6 34 -20
t32 -19t26.5 -14t28.5 -12t26.5 -6t30.5 -3q54 0 96 37t88 111zM952 545l90 -82q-50 -97 -120.5 -154t-155.5 -57q-57 0 -105 18.5t-124 63.5q-56 36 -94 52.5t-83 16.5q-33 0 -60.5 -11.5t-51.5 -36t-39 -44.5t-39 -57l-92 84q46 93 125 151t170 58q21 0 40 -2t38.5 -8
t32 -9.5t32 -13.5t26 -13.5t26.5 -15t22 -12.5q11 -6 35.5 -21.5t36.5 -22t32 -16t37.5 -13t36.5 -3.5q55 0 94.5 35.5t89.5 112.5z" />
    <glyph glyph-name="notequal" unicode="&#x2260;" horiz-adv-x="1124" 
d="M825 1053l-80 -183h279v-147h-334l-123 -279h457v-147h-512l-102 -234l-117 48l82 186h-277v147h334l121 279h-455v147h510l101 230z" />
    <glyph glyph-name="lessequal" unicode="&#x2264;" horiz-adv-x="1124" 
d="M1020 205l-911 457v159l911 457v-172l-764 -361v-6l764 -362v-172zM1028 -25h-928v152h928v-152z" />
    <glyph glyph-name="greaterequal" unicode="&#x2265;" horiz-adv-x="1124" 
d="M113 1278l911 -457v-159l-911 -457v172l761 362v4l-761 363v172zM1024 -25h-922v152h922v-152z" />
    <glyph glyph-name="lozenge" unicode="&#x25ca;" horiz-adv-x="1208" 
d="M1106 717l-406 -817h-204l-394 817l406 819h203zM881 711l-234 493q-30 83 -39 123h-6q-20 -75 -39 -123l-235 -481l235 -502q27 -80 35 -117h8q19 74 37 115z" />
    <hkern u1="T" u2="&#x161;" k="57" />
    <hkern u1="T" u2="&#xfc;" k="94" />
    <hkern u1="T" u2="&#xf6;" k="115" />
    <hkern u1="T" u2="&#xf2;" k="115" />
    <hkern u1="T" u2="&#xeb;" k="115" />
    <hkern u1="T" u2="&#xea;" k="170" />
    <hkern u1="T" u2="&#xe8;" k="170" />
    <hkern u1="T" u2="&#xe5;" k="115" />
    <hkern u1="T" u2="&#xe4;" k="57" />
    <hkern u1="T" u2="&#xe3;" k="115" />
    <hkern u1="T" u2="&#xe2;" k="115" />
    <hkern u1="T" u2="&#xe0;" k="115" />
    <hkern u1="V" u2="&#xf6;" k="57" />
    <hkern u1="V" u2="&#xf4;" k="84" />
    <hkern u1="V" u2="&#xee;" k="-8" />
    <hkern u1="V" u2="&#xeb;" k="57" />
    <hkern u1="V" u2="&#xea;" k="57" />
    <hkern u1="V" u2="&#xe8;" k="57" />
    <hkern u1="V" u2="&#xe5;" k="57" />
    <hkern u1="V" u2="&#xe4;" k="57" />
    <hkern u1="V" u2="&#xe3;" k="57" />
    <hkern u1="V" u2="&#xe2;" k="57" />
    <hkern u1="V" u2="&#xe0;" k="57" />
    <hkern u1="W" u2="&#xfc;" k="29" />
    <hkern u1="W" u2="&#xf6;" k="57" />
    <hkern u1="W" u2="&#xea;" k="57" />
    <hkern u1="W" u2="&#xe4;" k="57" />
    <hkern u1="Y" u2="&#xfc;" k="115" />
    <hkern u1="Y" u2="&#xf6;" k="141" />
    <hkern u1="&#x2018;" u2="&#x2018;" k="133" />
    <hkern u1="&#x2019;" u2="&#x2019;" k="133" />
    <hkern g1="A,Agrave,Aacute,Acircumflex,Atilde,Adieresis,Aring"
	g2="T"
	k="152" />
    <hkern g1="A,Agrave,Aacute,Acircumflex,Atilde,Adieresis,Aring"
	g2="v"
	k="37" />
    <hkern g1="A,Agrave,Aacute,Acircumflex,Atilde,Adieresis,Aring"
	g2="V"
	k="94" />
    <hkern g1="A,Agrave,Aacute,Acircumflex,Atilde,Adieresis,Aring"
	g2="w"
	k="37" />
    <hkern g1="A,Agrave,Aacute,Acircumflex,Atilde,Adieresis,Aring"
	g2="W"
	k="37" />
    <hkern g1="A,Agrave,Aacute,Acircumflex,Atilde,Adieresis,Aring"
	g2="y,yacute,ydieresis"
	k="37" />
    <hkern g1="A,Agrave,Aacute,Acircumflex,Atilde,Adieresis,Aring"
	g2="Y,Yacute,Ydieresis"
	k="152" />
    <hkern g1="A,Agrave,Aacute,Acircumflex,Atilde,Adieresis,Aring"
	g2="quoteright"
	k="152" />
    <hkern g1="f,fi,fl"
	g2="quoteright"
	k="-37" />
    <hkern g1="f,fi,fl"
	g2="f,germandbls,fi,fl"
	k="37" />
    <hkern g1="F"
	g2="A,Agrave,Aacute,Acircumflex,Atilde,Adieresis,Aring,AE"
	k="113" />
    <hkern g1="F"
	g2="comma"
	k="264" />
    <hkern g1="F"
	g2="period"
	k="264" />
    <hkern g1="L,Lslash"
	g2="T"
	k="227" />
    <hkern g1="L,Lslash"
	g2="V"
	k="188" />
    <hkern g1="L,Lslash"
	g2="W"
	k="113" />
    <hkern g1="L,Lslash"
	g2="y,yacute,ydieresis"
	k="76" />
    <hkern g1="L,Lslash"
	g2="Y,Yacute,Ydieresis"
	k="227" />
    <hkern g1="L,Lslash"
	g2="quoteright"
	k="152" />
    <hkern g1="P"
	g2="A,Agrave,Aacute,Acircumflex,Atilde,Adieresis,Aring,AE"
	k="152" />
    <hkern g1="P"
	g2="comma"
	k="264" />
    <hkern g1="P"
	g2="period"
	k="264" />
    <hkern g1="r"
	g2="comma"
	k="188" />
    <hkern g1="r"
	g2="period"
	k="188" />
    <hkern g1="r"
	g2="c,ccedilla"
	k="37" />
    <hkern g1="r"
	g2="d,dotlessi"
	k="37" />
    <hkern g1="r"
	g2="e,egrave,eacute,ecircumflex,edieresis"
	k="37" />
    <hkern g1="r"
	g2="n,ntilde"
	k="-37" />
    <hkern g1="r"
	g2="o,ograve,oacute,ocircumflex,otilde,odieresis,oslash,oe"
	k="37" />
    <hkern g1="r"
	g2="q"
	k="37" />
    <hkern g1="r"
	g2="hyphen"
	k="113" />
    <hkern g1="R"
	g2="T"
	k="37" />
    <hkern g1="R"
	g2="V"
	k="-12" />
    <hkern g1="R"
	g2="W"
	k="-12" />
    <hkern g1="R"
	g2="Y,Yacute,Ydieresis"
	k="76" />
    <hkern g1="T"
	g2="w"
	k="227" />
    <hkern g1="T"
	g2="y,yacute,ydieresis"
	k="188" />
    <hkern g1="T"
	g2="A,Agrave,Aacute,Acircumflex,Atilde,Adieresis,Aring,AE"
	k="152" />
    <hkern g1="T"
	g2="comma"
	k="227" />
    <hkern g1="T"
	g2="period"
	k="227" />
    <hkern g1="T"
	g2="c,ccedilla"
	k="227" />
    <hkern g1="T"
	g2="e,egrave,eacute,ecircumflex,edieresis"
	k="227" />
    <hkern g1="T"
	g2="o,ograve,oacute,ocircumflex,otilde,odieresis,oslash,oe"
	k="227" />
    <hkern g1="T"
	g2="hyphen"
	k="264" />
    <hkern g1="T"
	g2="a,agrave,aacute,acircumflex,atilde,adieresis,aring,ae"
	k="227" />
    <hkern g1="T"
	g2="r"
	k="188" />
    <hkern g1="T"
	g2="s,scaron"
	k="227" />
    <hkern g1="T"
	g2="u,ugrave,uacute,ucircumflex,udieresis"
	k="188" />
    <hkern g1="T"
	g2="colon"
	k="178" />
    <hkern g1="T"
	g2="semicolon"
	k="178" />
    <hkern g1="v"
	g2="comma"
	k="113" />
    <hkern g1="v"
	g2="period"
	k="113" />
    <hkern g1="V"
	g2="y,yacute,ydieresis"
	k="37" />
    <hkern g1="V"
	g2="A,Agrave,Aacute,Acircumflex,Atilde,Adieresis,Aring,AE"
	k="94" />
    <hkern g1="V"
	g2="comma"
	k="264" />
    <hkern g1="V"
	g2="period"
	k="264" />
    <hkern g1="V"
	g2="e,egrave,eacute,ecircumflex,edieresis"
	k="113" />
    <hkern g1="V"
	g2="o,ograve,oacute,ocircumflex,otilde,odieresis,oslash,oe"
	k="113" />
    <hkern g1="V"
	g2="hyphen"
	k="113" />
    <hkern g1="V"
	g2="a,agrave,aacute,acircumflex,atilde,adieresis,aring,ae"
	k="113" />
    <hkern g1="V"
	g2="r"
	k="76" />
    <hkern g1="V"
	g2="u,ugrave,uacute,ucircumflex,udieresis"
	k="76" />
    <hkern g1="V"
	g2="colon"
	k="102" />
    <hkern g1="V"
	g2="semicolon"
	k="102" />
    <hkern g1="V"
	g2="i,igrave,iacute,icircumflex,idieresis"
	k="37" />
    <hkern g1="w"
	g2="comma"
	k="113" />
    <hkern g1="w"
	g2="period"
	k="113" />
    <hkern g1="W"
	g2="A,Agrave,Aacute,Acircumflex,Atilde,Adieresis,Aring,AE"
	k="37" />
    <hkern g1="W"
	g2="comma"
	k="152" />
    <hkern g1="W"
	g2="period"
	k="152" />
    <hkern g1="W"
	g2="e,egrave,eacute,ecircumflex,edieresis"
	k="76" />
    <hkern g1="W"
	g2="o,ograve,oacute,ocircumflex,otilde,odieresis,oslash,oe"
	k="76" />
    <hkern g1="W"
	g2="a,agrave,aacute,acircumflex,atilde,adieresis,aring,ae"
	k="76" />
    <hkern g1="W"
	g2="r"
	k="37" />
    <hkern g1="W"
	g2="u,ugrave,uacute,ucircumflex,udieresis"
	k="37" />
    <hkern g1="W"
	g2="colon"
	k="37" />
    <hkern g1="W"
	g2="semicolon"
	k="37" />
    <hkern g1="y,yacute,ydieresis"
	g2="comma"
	k="113" />
    <hkern g1="y,yacute,ydieresis"
	g2="period"
	k="113" />
    <hkern g1="Y,Yacute,Ydieresis"
	g2="v"
	k="113" />
    <hkern g1="Y,Yacute,Ydieresis"
	g2="A,Agrave,Aacute,Acircumflex,Atilde,Adieresis,Aring,AE"
	k="152" />
    <hkern g1="Y,Yacute,Ydieresis"
	g2="comma"
	k="227" />
    <hkern g1="Y,Yacute,Ydieresis"
	g2="period"
	k="227" />
    <hkern g1="Y,Yacute,Ydieresis"
	g2="e,egrave,eacute,ecircumflex,edieresis"
	k="188" />
    <hkern g1="Y,Yacute,Ydieresis"
	g2="o,ograve,oacute,ocircumflex,otilde,odieresis,oslash,oe"
	k="188" />
    <hkern g1="Y,Yacute,Ydieresis"
	g2="q"
	k="188" />
    <hkern g1="Y,Yacute,Ydieresis"
	g2="hyphen"
	k="227" />
    <hkern g1="Y,Yacute,Ydieresis"
	g2="a,agrave,aacute,acircumflex,atilde,adieresis,aring,ae"
	k="188" />
    <hkern g1="Y,Yacute,Ydieresis"
	g2="u,ugrave,uacute,ucircumflex,udieresis"
	k="152" />
    <hkern g1="Y,Yacute,Ydieresis"
	g2="colon"
	k="164" />
    <hkern g1="Y,Yacute,Ydieresis"
	g2="semicolon"
	k="139" />
    <hkern g1="Y,Yacute,Ydieresis"
	g2="i,igrave,iacute,icircumflex,idieresis"
	k="27" />
    <hkern g1="Y,Yacute,Ydieresis"
	g2="p"
	k="152" />
    <hkern g1="quoteright"
	g2="s,scaron"
	k="152" />
    <hkern g1="quoteright"
	g2="t"
	k="37" />
  </font>
</defs></svg>
